objid	container	server_template_crc	cell_index	px	py	pz	qw	qx	qy	qz	scripts	objvars
i	i	h	i	f	f	f	f	f	f	f	s	p
2195536	0	object/tangible/furniture/cheap/bookcase_s01.iff	0	1526.77	90	1798.04	0.944148	0	-0.329521	0		$|
2195537	0	object/tangible/furniture/cheap/bookcase_s01.iff	0	1527.2	90	1804.03	-0.356949	0	0.934124	0		$|
2195545	0	object/static/item/item_jar_funk.iff	0	1528.17	91.0632	1802.13	0.930834	0	-0.365442	0		$|
2195546	0	object/static/item/item_jar_funk.iff	0	1528.01	91.0632	1802.36	-0.127074	0	0.991893	0		$|
2195547	0	object/static/item/item_jar_funk.iff	0	1528.25	91.0632	1802.33	0.921061	0	-0.389418	0		$|
2195548	0	object/static/item/item_jar_empty.iff	0	1528.2	90.0067	1801.35	1	0	0	0		$|
2195549	0	object/static/item/item_jar_bugs.iff	0	1528.58	91.064	1802.05	0.921061	0	-0.389418	0		$|
2195550	0	object/static/item/item_jar_bugs.iff	0	1528.36	91.064	1801.82	0.921061	0	-0.389418	0		$|
2195551	0	object/static/item/item_jar_guts.iff	0	1528.79	90.7144	1800.97	0.967663	0	-0.252245	0		$|
2195552	0	object/static/item/item_jar_guts.iff	0	1528.57	90.707	1801.12	0.967663	0	-0.252245	0		$|
2195553	0	object/static/item/item_jar_guts.iff	0	1528.66	90.71	1800.75	0.967663	0	-0.252245	0		$|
2195554	0	object/static/structure/tatooine/debris_tatt_drum_dented_1.iff	0	1528.37	89.9098	1802.18	0.988012	0	-0.15438	0		$|
2195555	0	object/static/structure/tatooine/debris_tatt_crate_1.iff	0	1528.73	90	1801.07	1	0	0	0		$|
2195556	0	object/static/structure/general/prp_junk_s8.iff	0	1523.94	90.4713	1798.09	0.0511727	0	0.99869	0		$|
2195557	0	object/static/structure/general/prp_junk_s8.iff	0	1524.81	90	1797.68	-0.0940644	0	0.995566	0		$|
2195558	0	object/static/item/item_tank_bubble.iff	0	1528.22	90.0074	1800.87	-0.581683	0	0.813415	0		$|
2195559	0	object/static/item/item_tank_gas.iff	0	1528.52	90.0175	1800.07	1	0	0	0		$|
2195560	0	object/static/item/item_tank_gas.iff	0	1528.23	90.008	1799.14	0.423482	0	0.905905	0		$|
2195562	0	object/static/item/item_tool_instrument_calibrator.iff	0	1528.05	90	1799.73	0.7991	0	-0.601198	0		$|
2195563	0	object/static/item/item_tool_meson_taloscope.iff	0	1522.75	90.6235	1799.88	0.813878	0	0.581035	0		$|
2195574	0	object/tangible/furniture/tatooine/frn_tato_table_small_style_01.iff	0	1522.35	90	1799.77	0.935897	0	-0.352274	0		$|
2195575	0	object/static/item/item_tool_recording_rod.iff	0	1522.13	90.62	1799.76	0.780707	0	-0.624897	0		$|
2195576	0	object/static/item/item_jar_berries.iff	0	1522.36	90.62	1800.09	1	0	0	0		$|
2195577	0	object/static/item/item_jar_guts.iff	0	1522.3	90.62	1799.69	0.922996	0	0.384808	0		$|
8445352	0	object/static/structure/general/lucky_despot_debris_md_engine.iff	0	1589.94	106.568	1850.93	0.266082	-0.655134	0.655134	-0.266082		$|
8445355	0	object/static/structure/dathomir/nsister_fence_style_01.iff	0	1547.58	98.6703	1833.59	1	0	0	0		$|
8445357	0	object/static/structure/dathomir/nsister_fence_style_01.iff	0	1547.7	98.8827	1842.36	-3.19E-08	0.0898786	0.995953	-2.88E-09		$|
8445358	0	object/static/structure/dathomir/nsister_fence_style_01.iff	0	1548.68	99.1324	1850.39	0.958134	-0.0204344	0.126842	-0.255877		$|
8445360	0	object/static/structure/general/prp_junk_s6.iff	0	1549.61	97.9789	1847.54	0.480124	0	0.8772	0		$|
8445361	0	object/static/structure/dathomir/nsister_fence_style_01.iff	0	1553.81	99.442	1854.35	0.632514	0.0753352	0.766007	0.0865055		$|
8445365	0	object/static/structure/general/prp_junk_s6.iff	0	1547.65	100.929	1828.49	0.707107	0	-0.707106	0		$|
8445366	0	object/static/structure/general/prp_junk_s8.iff	0	1551.79	100.044	1853.88	1	0	0	0		$|
8445367	0	object/static/structure/general/prp_junk_s6.iff	0	1547.71	100.791	1818.65	0.707107	0	0.707107	0		$|
8445368	0	object/static/structure/dathomir/nsister_fence_style_01.iff	0	1547.8	98.9779	1813.49	-3.20E-08	0	1	0		$|
8445376	0	object/static/structure/dantooine/dant_large_rock_hut.iff	0	1571.7	99.0002	1823.18	0.707107	0	0.707106	0	theme_park.endor.marauder_base.marauderbase_spawner	$|
8445379	0	object/static/structure/general/prp_junk_s8.iff	0	1567.62	99.0098	1827.27	0.969354	0.213131	-0.0095974	0.121804		$|
8445380	0	object/static/structure/general/prp_junk_s5.iff	0	1574.73	99.1732	1829.58	0.819043	0.143685	0.543467	0.114748		$|
8445381	0	object/static/structure/dathomir/nsister_fence_style_01.iff	0	1571.81	99.2833	1851.73	0.707114	0	0.707099	0		$|
8445383	0	object/static/structure/general/prp_junk_s2.iff	0	1577.32	96.8	1852.08	2.49E-08	-0.325549	-3.98E-08	0.945525		$|
8445385	0	object/static/structure/general/prp_junk_s8.iff	0	1575.3	99.3448	1850.36	-0.586918	0.301836	-0.343589	0.668108		$|
8445389	0	object/static/structure/general/prp_junk_s8.iff	0	1576.24	99.509	1850.78	0.194669	0.935443	0.29267	0.0373539		$|
8445391	0	object/static/structure/general/debris_deathstar_small_chunk.iff	0	1574.66	99	1847.3	0.832219	0	-0.554448	0		$|
8445398	0	object/static/structure/tatooine/debris_tatt_drum_storage_1.iff	0	1575.03	99	1848.95	1	0	0	0		$|
8445399	0	object/static/structure/general/prp_junk_s6.iff	0	1568.25	98.6274	1815.99	0.959662	0	0	0.281157		$|
8445404	0	object/static/structure/general/tato_cave_rock_med.iff	0	1569.62	98.9079	1815.42	0.111317	0.0469198	0.897869	-0.423366		$|
8445406	0	object/static/structure/general/prp_junk_s1.iff	0	1575.87	99	1816.75	0.986418	0	0.164252	0		$|
8445407	0	object/static/structure/general/prp_junk_s8.iff	0	1566.76	99.1032	1828.14	0.723132	0.165507	-0.149612	-0.653684		$|
8445408	0	object/static/structure/tatooine/debris_tatt_drum_dented_1.iff	0	1567.39	99.4513	1817.35	0.148592	0.691318	-0.691318	-0.148592		$|
8445409	0	object/static/structure/tatooine/debris_tatt_drum_storage_1.iff	0	1568.01	99	1817.93	-0.547317	0	0.836925	0		$|
8445410	0	object/static/structure/tatooine/debris_tatt_crate_metal_1.iff	0	1568	99.88	1817.99	0.590986	0	0.806682	0		$|
8445413	0	object/static/structure/dantooine/dant_large_mudhut.iff	0	1580.13	99	1799.82	0.999973	0	0.00730089	0		$|
8445422	0	object/static/structure/general/campfire_fresh.iff	0	1580.05	106.798	1799.86	0.941076	0	-0.338196	0		$|
8445423	0	object/static/structure/general/tato_cave_stalagmite_tiny.iff	0	1581.04	99	1802.42	0.999973	0	0.00730088	0		$|
8445424	0	object/static/structure/general/tato_cave_stalagmite_tiny.iff	0	1579.04	99	1802.45	0.999973	0	0.00730088	0		$|
8445425	0	object/static/structure/general/tato_cave_stalagmite_tiny.iff	0	1579.03	99	1801.95	0.999973	0	0.00730088	0		$|
8445426	0	object/static/structure/general/tato_cave_stalagmite_tiny.iff	0	1581.03	99	1801.92	0.999973	0	0.00730088	0		$|
8445427	0	object/static/structure/general/tato_cave_stalagmite_tiny.iff	0	1577.51	99	1800.47	0.999973	0	0.00730088	0		$|
8445428	0	object/static/structure/general/tato_cave_stalagmite_tiny.iff	0	1582.51	99	1800.4	0.999973	0	0.00730088	0		$|
8445429	0	object/static/structure/general/tato_cave_stalagmite_tiny.iff	0	1577	99	1799.98	0.999973	0	0.00730088	0		$|
8445430	0	object/static/structure/general/tato_cave_stalagmite_tiny.iff	0	1583	99	1799.89	0.999973	0	0.00730088	0		$|
8445431	0	object/static/structure/general/tato_cave_stalagmite_tiny.iff	0	1577	99	1799.48	0.999973	0	0.00730088	0		$|
8445432	0	object/static/structure/general/tato_cave_stalagmite_tiny.iff	0	1582.99	99	1799.39	0.999973	0	0.00730088	0		$|
8445433	0	object/static/structure/general/tato_cave_stalagmite_tiny.iff	0	1578.52	99	1801.46	0.999973	0	0.00730088	0		$|
8445434	0	object/static/structure/general/tato_cave_stalagmite_tiny.iff	0	1581.52	99	1801.41	0.999973	0	0.00730088	0		$|
8445435	0	object/static/structure/general/tato_cave_stalagmite_tiny.iff	0	1578.02	99	1800.96	0.999973	0	0.00730088	0		$|
8445436	0	object/static/structure/general/tato_cave_stalagmite_tiny.iff	0	1582.02	99	1800.91	0.999973	0	0.00730088	0		$|
8445437	0	object/static/structure/general/tato_cave_stalagmite_tiny.iff	0	1576.99	99	1798.98	0.999973	0	0.00730088	0		$|
8445438	0	object/static/structure/general/tato_cave_stalagmite_tiny.iff	0	1582.99	99	1798.89	0.999973	0	0.00730088	0		$|
8445439	0	object/static/structure/general/tato_cave_stalagmite_small.iff	0	1579.46	99	1797.44	0.999973	0	0.00730088	0		$|
8445440	0	object/static/structure/general/tato_cave_stalagmite_small.iff	0	1580.46	99	1797.43	0.999973	0	0.00730088	0		$|
8445441	0	object/static/structure/general/tato_cave_stalagmite_tiny.iff	0	1577.48	99	1798.47	0.999973	0	0.00730088	0		$|
8445442	0	object/static/structure/general/tato_cave_stalagmite_tiny.iff	0	1577.97	99	1797.96	0.999973	0	0.00730088	0		$|
8445443	0	object/static/structure/general/tato_cave_stalagmite_tiny.iff	0	1578.46	99	1797.46	0.999973	0	0.00730088	0		$|
8445444	0	object/static/structure/general/tato_cave_stalagmite_tiny.iff	0	1582.48	99	1798.4	0.999973	0	0.00730088	0		$|
8445445	0	object/static/structure/general/tato_cave_stalagmite_tiny.iff	0	1581.97	99	1797.91	0.999973	0	0.00730088	0		$|
8445446	0	object/static/structure/general/tato_cave_stalagmite_tiny.iff	0	1581.46	99	1797.41	0.999973	0	0.00730088	0		$|
8445447	0	object/static/structure/general/tato_cave_stalagmite_large.iff	0	1573.03	99	1810.44	0.961689	0	-0.274144	0		$|
8445448	0	object/static/structure/general/tato_cave_stalagmite_med.iff	0	1574.27	99	1808.45	0.961689	0	-0.274144	0		$|
8445449	0	object/static/structure/general/tato_cave_stalagmite_med.iff	0	1571.85	99	1812.33	0.961689	0	-0.274144	0		$|
8445450	0	object/static/structure/general/tato_cave_stalagmite_small.iff	0	1575.14	99	1807.04	0.961689	0	-0.274144	0		$|
8445451	0	object/static/structure/general/tato_cave_stalagmite_small.iff	0	1570.92	99	1813.84	0.961689	0	-0.274144	0		$|
8445452	0	object/static/structure/general/tato_cave_stalagmite_tiny.iff	0	1575.67	99	1806.19	0.961689	0	-0.274144	0		$|
8445453	0	object/static/structure/general/tato_cave_stalagmite_tiny.iff	0	1570.4	99	1814.69	0.961689	0	-0.274144	0		$|
8445454	0	object/static/structure/general/tato_cave_stalagmite_large.iff	0	1585.62	99	1811.07	0.993395	0	0.114747	0		$|
8445455	0	object/static/structure/general/tato_cave_stalagmite_med.iff	0	1585.08	99	1808.74	0.993395	0	0.114747	0		$|
8445456	0	object/static/structure/general/tato_cave_stalagmite_med.iff	0	1586.16	99	1813.32	0.993395	0	0.114747	0		$|
8445457	0	object/static/structure/general/tato_cave_stalagmite_small.iff	0	1584.71	99	1807.18	0.993395	0	0.114747	0		$|
8445458	0	object/static/structure/general/tato_cave_stalagmite_small.iff	0	1586.54	99	1814.97	0.993395	0	0.114747	0		$|
8445459	0	object/static/structure/general/tato_cave_stalagmite_tiny.iff	0	1584.48	99	1806.2	0.993395	0	0.114747	0		$|
8445460	0	object/static/structure/general/tato_cave_stalagmite_tiny.iff	0	1586.76	99	1815.94	0.993395	0	0.114747	0		$|
8445467	0	object/static/structure/general/prp_junk_s6.iff	0	1591.51	99.7149	1819.66	0.707109	0.707104	0	0		$|
8445468	0	object/static/structure/general/prp_junk_s6.iff	0	1547.87	100.579	1806.81	-7.73E-09	-7.73E-09	0.707107	0.707107		$|
8445469	0	object/static/structure/general/prp_junk_s6.iff	0	1591.54	101.392	1819.64	-0.707031	0.707032	0.0103248	-0.0103248		$|
8445470	0	object/static/structure/general/prp_junk_s5.iff	0	1547.91	98.1663	1806.95	-3.20E-08	1	0	0		$|
8445471	0	object/static/structure/general/prp_junk_s5.iff	0	1548.48	98.5573	1803.83	0.105669	0.105669	0.699167	-0.699167		$|
8445473	0	object/static/structure/general/prp_junk_s8.iff	0	1548.2	100.055	1804.16	-0.370381	0.557171	0.595878	0.444193		$|
8445479	0	object/static/structure/tatooine/debris_tatt_crate_1.iff	0	1547.99	98.9859	1808.4	0.801858	0	0.597514	0		$|
8445480	0	object/static/structure/tatooine/debris_tatt_crate_metal_1.iff	0	1548.7	98.997	1808.56	0.659111	0	0.752046	0		$|
8445481	0	object/static/structure/tatooine/antenna_tatt_style_1.iff	0	1548.83	105.849	1802.56	1.56E-08	-0.382683	3.86E-08	0.92388		$|
8445484	0	object/static/structure/dathomir/nsister_fence_style_01.iff	0	1549.89	98.9882	1797.73	0.993395	0	-0.114747	0		$|
8445486	0	object/static/structure/general/prp_junk_s8.iff	0	1548.52	100.012	1803.25	0.61799	-0.412819	0.383304	0.548404		$|
8445489	0	object/static/structure/dathomir/nsister_fence_style_01.iff	0	1555.43	99.0215	1793.78	0.707107	0	0.707106	0		$|
8445490	0	object/static/structure/general/prp_junk_s7.iff	0	1563	97.7759	1794.42	0.804796	0.593467	0.00593487	-0.00804823		$|
8445491	0	object/static/structure/dathomir/nsister_fence_style_01.iff	0	1570.76	99	1793.28	0.734818	0	-0.678265	0		$|
8445492	0	object/static/structure/general/prp_junk_s8.iff	0	1550.83	99.2321	1802.39	0.696914	0.696914	0.11963	-0.11963		$|
8445493	0	object/static/structure/general/prp_junk_s6.iff	0	1550.96	99	1800.35	0.949235	0	0.314567	0		$|
8445495	0	object/static/structure/general/prp_junk_s4.iff	0	1579.14	100.031	1824.49	0.758102	8.28E-09	0.652136	7.13E-09		$|
8445496	0	object/static/structure/general/prp_junk_s3.iff	0	1564.74	98.6273	1802.86	0.342597	0.641254	0.618569	0.297982		$|
8445501	0	object/static/structure/dathomir/nsister_fence_style_01.iff	0	1585.83	99	1833.47	0.949235	0	-0.314567	0		$|
8445502	0	object/static/structure/dathomir/nsister_fence_style_01.iff	0	1589.98	98.9871	1825.75	0.985585	0	-0.169182	0		$|
8445503	0	object/static/structure/dathomir/nsister_fence_style_01.iff	0	1591.46	99.0514	1813.27	-3.20E-08	0	1	0		$|
8445504	0	object/static/structure/dathomir/nsister_fence_style_01.iff	0	1589.25	99.0144	1804.62	0.970137	0	0.242556	0		$|
8445517	0	object/static/structure/dathomir/night_sister_banner_s01.iff	0	1583.83	95.3949	1796.3	0.956802	0	-0.29074	0		$|
8445518	0	object/static/structure/dathomir/night_sister_banner_s01.iff	0	1576.91	95.3949	1795.7	0.982863	0	0.184337	0		$|
8445520	0	object/static/structure/general/skeleton_human_headandbody.iff	0	1587.34	99	1806.37	0.609966	0	0.792427	0		$|
8445521	0	object/static/structure/general/skeleton_human_head.iff	0	1588.11	98.9986	1806.26	0.956216	0	-0.292663	0		$|
8445522	0	object/static/structure/general/skeleton_human_head.iff	0	1588.8	98.9901	1807.19	0.762726	0	-0.646722	0		$|
8445523	0	object/static/structure/general/skeleton_human_body.iff	0	1587.74	99	1806.87	0.99453	0	0.104452	0		$|
8445524	0	object/static/structure/general/skeleton_human_body.iff	0	1587.02	99	1807.15	0.762615	0	-0.646852	0		$|
8445525	0	object/static/structure/general/skeleton_bith_headandbody.iff	0	1587.29	99	1805.16	-0.701809	0	0.712365	0		$|
8445526	0	object/static/structure/general/skeleton_ithorian_headandbody.iff	0	1585.93	99	1806.06	0.676008	0	0.736894	0		$|
8445530	0	object/static/structure/general/skeleton_bith_headandbody.iff	0	1588.18	98.9957	1805.46	0.768481	0	0.639873	0		$|
8445531	0	object/static/structure/general/skeleton_human_headandbody.iff	0	1586.68	98.9996	1806.31	-0.0180754	0	0.999837	0		$|
8445532	0	object/static/structure/general/skeleton_human_head.iff	0	1588.34	98.9651	1804.66	0.912344	-0.276966	0.108173	0.281457		$|
8445533	0	object/static/structure/general/skeleton_human_head.iff	0	1585.49	99	1805.66	0.932206	-0.067789	-0.249791	0.252984		$|
8445534	0	object/static/structure/general/skeleton_human_head.iff	0	1585.81	99	1807.11	-0.69241	0.720101	0.0324265	-0.0311795		$|
8445540	0	object/static/structure/general/prp_junk_s6.iff	0	1580.05	104.897	1799.86	0.993956	0	0.109778	0		$|
8445541	0	object/building/endor/endor_tiki_torch.iff	0	1565	99	1821.53	1	0	0	0		$|
8445542	0	object/building/endor/endor_tiki_torch.iff	0	1565	99	1824.53	1	0	0	0		$|
8445547	0	object/static/structure/dathomir/nsister_fence_style_01.iff	0	1543.14	97.8011	1828.89	0.780155	-0.0815504	0.610635	0.108777		$|
8555353	0	object/static/structure/dathomir/nsister_fence_style_01.iff	0	1543.33	98.2957	1818.08	0.616405	-0.078645	0.7811	0.0611843		$|
8555354	0	object/static/structure/general/prp_junk_s6.iff	0	1547.65	105.134	1828.49	0.707116	0	-0.707097	0		$|
8555355	0	object/static/structure/general/prp_junk_s6.iff	0	1547.71	104.997	1818.65	0.707107	0	0.707107	0		$|
8555356	0	object/static/structure/general/trash_pile_s01.iff	0	1563.61	99	1802.74	1	0	0	0		$|
8555357	0	object/static/structure/general/trash_pile_s01.iff	0	1564.08	99	1802.29	0.681844	0	0.731498	0		$|
8555358	0	object/static/structure/general/trash_pile_s01.iff	0	1563.1	99	1802.95	0.748356	0	-0.663297	0		$|
8555359	0	object/static/structure/tatooine/debris_tatt_drum_dented_1.iff	0	1567.07	99	1803.24	0.964726	0	0.263255	0		$|
8555360	0	object/static/structure/tatooine/debris_tatt_crate_1.iff	0	1565.32	99	1800.07	-0.366273	0	0.930508	0		$|
8555361	0	object/static/structure/tatooine/debris_tatt_crate_1.iff	0	1565.62	99	1801.12	0.865324	0	0.501213	0		$|
8555362	0	object/static/structure/tatooine/debris_tatt_drum_storage_1.iff	0	1566.15	99	1804.47	0.991021	0	-0.133709	0		$|
8555363	0	object/static/structure/tatooine/debris_tatt_crate_metal_1.iff	0	1564.73	99	1801.48	0.0801892	0	0.99678	0		$|
8555364	0	object/static/structure/tatooine/debris_tatt_crate_metal_1.iff	0	1565.17	99	1804.67	0.796084	0	0.605186	0		$|
8555366	0	object/static/structure/dathomir/nsister_fence_style_01.iff	0	1535.09	95.9131	1827.47	0.726026	-0.120873	0.661085	0.145747		$|
8555367	0	object/static/structure/dathomir/nsister_fence_style_01.iff	0	1535.35	95.8564	1819.08	0.693625	-0.137421	0.694583	0.132493		$|
8555368	0	object/static/structure/dathomir/nsister_fence_style_01.iff	0	1526.46	93.1838	1826.93	0.703938	-0.0668655	0.700794	0.0942804		$|
8555369	0	object/static/structure/dathomir/nsister_fence_style_01.iff	0	1526.8	93.2058	1818.71	0.702946	-0.0765916	0.703059	0.0755537		$|
8555370	0	object/static/structure/dathomir/nsister_fence_style_01.iff	0	1513.84	89.8565	1826.97	0.705587	-0.0936456	0.693661	0.110507		$|
8555371	0	object/static/structure/general/prp_junk_s6.iff	0	1520.83	94.048	1827.1	0.00125746	-0.0859376	0.996192	0.0146347		$|
8555372	0	object/static/structure/general/prp_junk_s6.iff	0	1518.8	93.491	1827.09	0.991545	0.0236706	0.00911209	0.127259		$|
8555373	0	object/static/structure/general/prp_junk_s6.iff	0	1522.96	94.3359	1815.01	-0.704354	-0.0541304	0.705028	-0.0623775		$|
8555374	0	object/static/structure/general/prp_junk_s6.iff	0	1522.78	94.3779	1816.98	0.696842	-0.0595233	0.713002	0.0499552		$|
8555375	0	object/static/structure/dathomir/nsister_fence_style_01.iff	0	1514.16	90.351	1818.59	0.702104	-0.0839633	0.697655	0.115225		$|
8555376	0	object/static/structure/general/lucky_despot_debris_sm_engine.iff	0	1559.06	102.531	1808.61	-0.0398778	0.118696	-0.157612	0.97953		$|
8555377	0	object/static/structure/general/prp_junk_s1.iff	0	1579.58	98.9254	1824.18	-0.70414	0.0493829	0.708342	7.42E-05		$|
8555378	0	object/static/structure/general/lucky_despot_debris_lg_engine_s01.iff	0	1354.08	83.9918	1839.31	0.209502	0.675359	0.675358	0.209502		$|
8555379	0	object/static/structure/general/lucky_despot_debris_lg_engine_s02.iff	0	1462.21	85.999	1847.13	0.667877	0.0865051	0.140197	0.725811		$|
8555382	0	object/static/structure/general/prp_junk_s6.iff	0	1549.57	105.134	1828.49	0.707123	0	-0.70709	0		$|
8555383	0	object/static/structure/general/prp_junk_s6.iff	0	1549.57	100.929	1828.49	0.707113	0	-0.7071	0		$|
8555384	0	object/static/structure/general/prp_junk_s6.iff	0	1549.63	104.997	1818.65	0.707107	0	0.707107	0		$|
8555385	0	object/static/structure/general/prp_junk_s6.iff	0	1549.63	100.791	1818.65	0.707107	0	0.707107	0		$|
8555387	0	object/static/structure/dathomir/nsister_fence_style_01.iff	0	1505.26	87.5196	1826.93	0.708741	-0.0904797	0.692366	0.100646		$|
8555388	0	object/static/structure/dathomir/nsister_fence_style_01.iff	0	1505.8	88.3326	1818.44	0.706488	-0.0865856	0.694731	0.103565		$|
8555389	0	object/static/structure/general/prp_junk_s6.iff	0	1497.3	88.4005	1826.98	0.994916	0.023387	0.00981792	0.0974598		$|
8555390	0	object/static/structure/general/prp_junk_s6.iff	0	1499.34	88.7246	1826.99	0.001257	-0.085938	0.996192	0.014635		$|
8555391	0	object/static/structure/general/prp_junk_s6.iff	0	1491.46	87.4589	1818.13	-0.011427	-0.077413	0.996911	-0.006766		$|
8555392	0	object/static/structure/general/prp_junk_s6.iff	0	1489.38	87.1247	1818.12	0.996583	-0.005832	-0.000477	0.082384		$|
8555393	0	object/static/structure/dathomir/nsister_fence_style_01.iff	0	1497.15	86.3228	1818.24	0.710327	-0.0752091	0.696305	0.0702732		$|
8555394	0	object/static/structure/dathomir/nsister_fence_style_01.iff	0	1491.91	85.5361	1826.94	0.712295	-0.0534286	0.696483	0.0685024		$|
8555396	0	object/static/structure/dathomir/nsister_fence_style_01.iff	0	1484.22	83.979	1816.91	0.789334	-0.0691975	0.605135	0.0772921		$|
8555397	0	object/static/structure/dathomir/nsister_fence_style_01.iff	0	1483.62	83.8323	1827.96	0.610419	-0.0550493	0.784158	0.0972313		$|
8555398	0	object/static/structure/general/prp_junk_s6.iff	0	1477.15	88.3767	1827.44	0.707126	0	-0.707087	0		$|
8555399	0	object/static/structure/general/prp_junk_s6.iff	0	1477.15	84.1714	1827.44	0.707116	0	-0.707097	0		$|
8555400	0	object/static/structure/general/prp_junk_s6.iff	0	1479.07	84.1714	1827.44	0.707121	0	-0.707092	0		$|
8555401	0	object/static/structure/general/prp_junk_s6.iff	0	1479.07	88.3767	1827.44	0.707132	0	-0.707081	0		$|
8555402	0	object/static/structure/general/prp_junk_s6.iff	0	1477.57	88.5882	1817.43	0.707107	0	0.707107	0		$|
8555403	0	object/static/structure/general/prp_junk_s6.iff	0	1477.58	84.3827	1817.43	0.707107	0	0.707107	0		$|
8555404	0	object/static/structure/general/prp_junk_s6.iff	0	1479.49	84.3827	1817.43	0.707107	0	0.707107	0		$|
8555405	0	object/static/structure/general/prp_junk_s6.iff	0	1479.49	88.5887	1817.43	0.707107	0	0.707107	0		$|
8555407	0	object/static/structure/general/lucky_despot_debris_md_engine.iff	0	1411.61	85.5294	1796.14	0.780235	-0.106467	0.609314	-0.0929203		$|
8555408	0	object/static/structure/dantooine/dant_fence_8m.iff	0	1512.34	90	1808.78	0.707108	0	0.707106	0		$|
8555410	0	object/static/structure/dantooine/dant_fence_8m.iff	0	1513.01	89.9367	1799.8	0.761353	-0.00324162	0.648319	-0.00380679		$|
8555411	0	object/static/structure/dantooine/dant_fence_8m.iff	0	1517.08	90	1796.71	0.0549756	0	0.998488	0		$|
8555412	0	object/static/structure/general/prp_junk_s8.iff	0	1512.34	90.5729	1804.7	0.802096	0	0.597195	0		$|
8555413	0	object/static/structure/general/prp_junk_s8.iff	0	1512.47	90.3831	1803.75	0.802096	0	0.597195	0		$|
8555414	0	object/static/structure/dantooine/dant_fence_8m.iff	0	1518.89	91.5261	1814.78	0.0426359	-0.10247	0.993531	-0.0240427		$|
8555415	0	object/static/structure/general/prp_junk_s8.iff	0	1514.89	91.078	1814.4	0.98155	0.00653291	-0.176121	0.0741495		$|
8555417	0	object/static/structure/general/prp_junk_s8.iff	0	1520.85	90.4944	1797.68	0.833712	0	0.552199	0		$|
8555420	0	object/static/structure/dantooine/dant_fence_8m.iff	0	1528.43	90.2398	1809.19	0.655723	-0.016396	0.754587	-0.018869		$|
8555421	0	object/static/structure/general/prp_junk_s8.iff	0	1520.13	90.4713	1811.77	0.989448	0	-0.144887	0		$|
8555422	0	object/static/structure/dantooine/dant_fence_4m.iff	0	1526.04	93.1802	1814.2	0.99129	-0.0196061	0.0782801	0.104078		$|
8555424	0	object/static/structure/general/prp_junk_s6.iff	0	1528.85	93.0309	1813.63	-0.704354	-0.05413	0.705028	-0.062378		$|
8555429	0	object/building/endor/endor_forest_hut.iff	0	1447.6	82	1809.49	0.844589	0	-0.535416	0		$|
8555431	0	object/building/endor/endor_forest_hut.iff	0	1440.96	82	1804.11	0.995641	0	0.0932718	0		$|
8555432	0	object/building/endor/endor_forest_hut.iff	0	1435.36	82	1810.71	0.695563	0	0.718465	0		$|
8555434	0	object/static/structure/general/prp_junk_s7.iff	0	1486.93	82	1790.69	0.865324	0	-0.501213	0		$|
8555435	0	object/static/structure/general/prp_junk_s4.iff	0	1510.84	90.5636	1813.94	-0.661973	-0.0563437	0.745846	-0.0482753		$|
8555436	0	object/static/structure/general/prp_junk_s3.iff	0	1453.65	82.4171	1828.42	0.482777	0.151994	0.84184	-0.187429		$|
8555437	0	object/static/structure/general/prp_junk_s8.iff	0	1519.19	90	1812.01	1	0	0	0		$|
8555438	0	object/static/structure/general/prp_junk_s6.iff	0	1518.21	90.6605	1798.04	0.572112	-0.467885	0.436733	0.51287		$|
8555439	0	object/static/structure/general/prp_junk_s5.iff	0	1524.23	89.3801	1810.37	-0.00920333	0	0	0.999958		$|
8555441	0	object/static/structure/general/lucky_despot_debris_sm_engine.iff	0	1458.64	84.3488	1800.17	-0.252172	-0.138558	0.954587	0.0772971		$|
8555442	0	object/static/structure/general/prp_junk_s2.iff	0	1508.28	90.1955	1811.75	0.875175	0	-0.483807	0		$|
8555443	0	object/static/structure/general/prp_junk_s1.iff	0	1511.45	89.7647	1815.79	1	0	0	0		$|
8555444	0	object/static/structure/general/prp_junk_s1.iff	0	1507.5	86.2389	1812.15	0.813878	0	0.581035	0		$|
8555445	0	object/static/structure/general/prp_junk_s2.iff	0	1511.19	87.4124	1816.05	-0.198654	0.701484	0.00244378	0.684435		$|
8555446	0	object/static/structure/general/prp_junk_s5.iff	0	1511.05	89.1145	1812.12	0.792452	-0.337231	0.451583	-0.233168		$|
8555448	0	object/static/structure/tatooine/debris_tatt_crate_1.iff	0	1523.91	90.9142	1810.49	0.990901	0	0.13459	0		$|
8555450	0	object/static/structure/tatooine/debris_tatt_drum_dented_1.iff	0	1524.26	90	1808.93	0.99875	0	-0.0499792	0		$|
8555451	0	object/static/structure/tatooine/debris_tatt_drum_storage_1.iff	0	1516.64	90	1799.56	0.987227	0	0.159318	0		$|
8555452	0	object/static/structure/tatooine/debris_tatt_drum_dented_1.iff	0	1517.72	90	1799.87	0.99875	0	0.0499792	0		$|
8555453	0	object/static/structure/tatooine/debris_tatt_crate_metal_1.iff	0	1523.84	91.62	1810.36	0.939373	0	0.342898	0		$|
8555454	0	object/static/structure/tatooine/tent_house_tatooine_style_01.iff	0	1471.73	82.3551	1814.66	0.487482	0	0.873133	0		$|
8555457	0	object/static/structure/tatooine/jawa/tent_jawa_01_small.iff	0	1433.28	82.1329	1835.13	1	0	0	0		$|
8555458	0	object/static/structure/tatooine/jawa/tent_jawa_01_small.iff	0	1466.8	82.1012	1817.3	-0.238089	0	0.971243	0		$|
8615352	0	object/static/structure/tatooine/jawa/tent_jawa_01_large.iff	0	1430.37	82.3074	1821.42	1	0	0	0		$|
8615353	0	object/static/structure/general/campfire_fresh.iff	0	1441.48	82.1265	1810.48	1	0	0	0		$|
8615354	0	object/building/endor/endor_tiki_torch.iff	0	1477.2	82.1065	1825.97	1	0	0	0		$|
8615355	0	object/building/endor/endor_tiki_torch.iff	0	1477.34	82.2098	1818.87	1	0	0	0		$|
8615356	0	object/static/structure/general/prp_junk_s6.iff	0	1428.4	82	1818.52	0.959662	9.83E-09	0.281157	-3.35E-08		$|
8615357	0	object/static/structure/general/prp_junk_s5.iff	0	1433.13	82.0316	1835.83	1	0	0	0		$|
8615358	0	object/static/structure/tatooine/debris_tatt_drum_dented_1.iff	0	1434.15	82	1834.02	-0.332901	0	0.942962	0		$|
8615359	0	object/static/structure/tatooine/debris_tatt_drum_storage_1.iff	0	1432.69	82	1834.02	0.968675	0	0.248332	0		$|
8615360	0	object/static/structure/tatooine/debris_tatt_crate_1.iff	0	1432.44	82	1837.25	0.921061	0	0.389418	0		$|
8615361	0	object/static/structure/tatooine/debris_tatt_crate_1.iff	0	1433.21	82	1833.17	-0.703845	0	0.710353	0		$|
8615362	0	object/static/structure/general/trash_pile_s01.iff	0	1454.03	82	1832.82	-0.0576409	0	0.998337	0		$|
8615363	0	object/static/structure/general/trash_pile_s01.iff	0	1453.71	82	1832.32	-0.651804	0	0.758388	0		$|
8615364	0	object/static/structure/general/trash_pile_s01.iff	0	1453.14	82	1832.76	0.881683	0	-0.471843	0		$|
8615367	0	object/static/structure/general/prp_junk_s5.iff	0	1453.64	83.4863	1832.61	-3.20E-08	1	0	0		$|
8615368	0	object/static/structure/general/prp_junk_s6.iff	0	1426.3	82.8046	1819.69	0.205045	0.205045	0.676725	0.676725		$|
8615369	0	object/static/structure/general/prp_junk_s8.iff	0	1432.28	82.3478	1824.46	-0.228015	0.673176	0.666985	-0.223549		$|
8615370	0	object/static/structure/general/prp_junk_s8.iff	0	1431.3	82	1824.09	1	0	0	0		$|
8615371	0	object/static/structure/general/prp_junk_s8.iff	0	1432.17	82.7273	1823.27	0.796084	0	0.605186	0		$|
8615373	0	object/static/structure/tatooine/debris_tatt_crate_1.iff	0	1433.7	82.3556	1818.69	0.300675	0.300675	-0.639995	0.639996		$|
8615374	0	object/static/structure/tatooine/debris_tatt_crate_metal_1.iff	0	1433.88	82	1817.85	0.983748	0	-0.179552	0		$|
8615375	0	object/static/structure/tatooine/debris_tatt_crate_metal_1.iff	0	1432.48	83.1432	1818.07	0.315749	0	0.948843	0		$|
8615376	0	object/static/structure/tatooine/debris_tatt_drum_dented_1.iff	0	1432.5	82	1818.09	0.877583	0	-0.479425	0		$|
8615379	0	object/static/item/item_container_energy_liquid.iff	0	1432.61	82	1818.95	0.0252278	0	0.999682	0		$|
8615380	0	object/static/item/item_container_energy_liquid.iff	0	1432.98	82	1819.03	0.872502	0	-0.488611	0		$|
8615381	0	object/static/item/item_container_energy_liquid.iff	0	1427.69	82	1820.15	0.54835	0	0.836249	0		$|
8615382	0	object/static/item/item_container_energy_liquid.iff	0	1427.85	82	1819.82	0.574435	0	0.818551	0		$|
8615386	0	object/static/item/item_container_organic_food.iff	0	1432.68	82	1825.08	0.900447	0	0.434966	0		$|
8615387	0	object/static/item/item_container_organic_food.iff	0	1433.07	82	1824.78	0.853242	0	0.521515	0		$|
8615388	0	object/tangible/furniture/tatooine/frn_tato_table_small_style_01.iff	0	1427.62	82	1824.64	1	0	0	0		$|
8615389	0	object/tangible/furniture/tatooine/frn_tato_chair_cafe_style_01.iff	0	1427.37	82	1823.26	0.998201	0	0.059964	0		$|
8615390	0	object/tangible/furniture/tatooine/frn_tato_chair_cafe_style_01.iff	0	1428.56	82	1823.64	0.913089	0	-0.407761	0		$|
8615391	0	object/static/item/item_basket_closed.iff	0	1428.49	82	1820.5	1	0	0	0		$|
8615392	0	object/static/item/item_basket_shallow.iff	0	1431.71	82	1819.01	0.990901	0	0.13459	0		$|
8615393	0	object/static/item/item_bread_loaf.iff	0	1427.96	82.62	1824.61	0.292098	0	0.956388	0		$|
8615394	0	object/static/item/item_bread_loaf.iff	0	1427.67	82.62	1824.61	-0.501259	0	0.865297	0		$|
8615395	0	object/static/item/item_bread_loaf.iff	0	1427.83	82.62	1824.86	0.612599	0	0.790394	0		$|
8615399	0	object/static/item/item_droid_magnet.iff	0	1433.07	85.2443	1822.72	-3.07E-08	0.958244	-9.15E-09	0.285952		$|
8615402	0	object/static/item/item_jar_bugs.iff	0	1427.41	82.62	1824.31	0.819648	0	-0.572867	0		$|
8615403	0	object/static/item/item_jar_berries.iff	0	1427.35	82.62	1824.74	0.819648	0	-0.572867	0		$|
9185437	0	object/static/structure/dantooine/dant_rack_spears.iff	0	1559.38	99	1849.64	0.862606	0	0.505877	0		$|
9185438	0	object/static/structure/dantooine/dant_rack_spears.iff	0	1559.06	99.008	1850.81	0.696421	0	0.717634	0		$|
9185441	0	object/tangible/furniture/all/frn_all_table_s03.iff	0	1565.22	99	1849.76	1	0	0	0		$|
9185442	0	object/static/item/wp_carbine_ee3_combined.iff	0	1565.24	99.78	1849.78	-0.696914	0.11963	-0.11963	0.696914		$|
9185443	0	object/static/item/item_vibroknuckles.iff	0	1565.13	99.76	1850.08	-0.595389	0.394349	-0.38654	0.583599		$|
9185444	0	object/static/item/wp_mle_axe_heavy_duty.iff	0	1566.36	99.17	1851.48	0.989506	0	0	-0.144492		$|
9185445	0	object/static/item/wp_mle_2h_sword_s02.iff	0	1564.89	99.77	1849.94	-0.558609	0.433539	-0.433539	0.558609		$|
9185446	0	object/static/item/wp_pistol_dl44_metal_combined.iff	0	1565.48	99.764	1849.66	-0.671211	0.222432	-0.222432	0.671211		$|
9686044	0	object/static/item/wp_mle_lance_staff_wood_s01.iff	0	1565.98	100.294	1853.25	0.990008	-0.00994171	-0.0943347	-0.104335		$|
9686045	0	object/static/item/wp_mle_lance_staff_wood_s02.iff	0	1566.13	100.235	1853	0.990008	-0.00994171	-0.0943347	-0.104335		$|
9686046	0	object/static/item/wp_mle_baton_stun.iff	0	1565.56	99.78	1849.37	0.707107	0	0	0.707106		$|
9686047	0	object/static/item/wp_mle_knife_stone.iff	0	1564.79	99.77	1849.56	-0.519786	-0.479398	0.479398	0.519786		$|
9686048	0	object/static/item/wp_rifle_laser_combined.iff	0	1566.43	99.2186	1850.45	0.444222	-0.267912	0.732084	0.441523		$|
9686049	0	object/static/item/wp_rifle_t21_combined.iff	0	1566.54	99.3611	1850.56	0.432174	-0.289277	0.70466	0.4827		$|
9686050	0	object/static/item/item_tool_ranged_wp_repair.iff	0	1564.9	99	1848.75	1	0	0	0		$|
9686052	0	object/tangible/furniture/tatooine/frn_tato_table_small_style_01.iff	0	1562.91	99.262	1854.16	1	0	0	0		$|
9686053	0	object/tangible/furniture/tatooine/frn_tato_chair_cafe_style_01.iff	0	1560.87	99.1958	1853.95	0.5653	0	0.824886	0		$|
9686054	0	object/static/item/item_bottle_fat.iff	0	1562.94	99.8644	1854.35	1	0	0	0		$|
9686055	0	object/static/item/item_bottle_fat.iff	0	1572.06	99	1826.26	1	0	0	0		$|
9686056	0	object/static/item/item_bottle_fat.iff	0	1571.73	99	1826.3	1	0	0	0		$|
9686057	0	object/static/item/item_bottle_fat.iff	0	1571.85	99	1825.99	1	0	0	0		$|
9686058	0	object/static/item/item_bottle_fat.iff	0	1571.69	99.1367	1826.05	0.674582	-7.37E-09	8.07E-09	0.7382		$|
9686059	0	object/static/item/item_cage_bamboo.iff	0	1572.98	99	1825.92	0.94441	0	0.328769	0		$|
9686060	0	object/static/item/item_cage_bamboo.iff	0	1573.76	99	1825.3	0.552863	0	0.833272	0		$|
9686065	0	object/static/creature/corellia_durni.iff	0	1573.15	99.0632	1825.81	0.902611	0	-0.430458	0		$|
9686070	0	object/static/creature/tatooine_worrt.iff	0	1573.79	99.0949	1825.28	-0.296281	0	0.955101	0		$|
9686076	0	object/static/item/item_axe.iff	0	1572.96	99.715	1825.52	-0.543096	-0.452821	0.452821	0.543096		$|
9686078	0	object/static/item/item_comp_blaster_cannon.iff	0	1557.03	99.0949	1850.57	-0.150859	0.690827	-0.690827	0.150859		$|
9686079	0	object/static/item/item_con_bag_ingredients_lg_s1.iff	0	1574.7	99	1823.82	0.991097	0	0.133144	0		$|
9686080	0	object/static/item/item_con_bag_ingredients_lg_s1.iff	0	1574.56	99	1824.31	1	0	0	0		$|
9686081	0	object/static/item/item_con_bag_ingredients_lg_s1.iff	0	1574.16	99	1824.01	0.874179	0	-0.485604	0		$|
9686082	0	object/static/item/item_con_bag_sm.iff	0	1574.4	100	1822.17	-0.689498	0	0.724287	0		$|
9686083	0	object/static/item/item_con_barrel_lg_s1.iff	0	1574.42	99	1822.18	0.898261	0	-0.439462	0		$|
9686084	0	object/static/item/item_con_drink_flask.iff	0	1573.27	99	1820.47	1	0	0	0		$|
9686085	0	object/static/item/item_con_glass_beaker.iff	0	1573.42	99	1820.56	1	0	0	0		$|
9686086	0	object/static/item/item_con_glass_beaker.iff	0	1573.16	99	1820.65	1	0	0	0		$|
9686087	0	object/static/item/item_con_drink_flask.iff	0	1573.57	99	1820.78	1	0	0	0		$|
9686088	0	object/static/item/item_con_drink_flask.iff	0	1573.53	99	1820.98	1	0	0	0		$|
9686089	0	object/static/item/item_con_drink_flask.iff	0	1573.62	99	1821.16	1	0	0	0		$|
9686090	0	object/static/item/item_con_glass_beaker.iff	0	1573.12	99	1819.92	1	0	0	0		$|
9686091	0	object/static/item/item_con_pitcher_full.iff	0	1572.94	99	1820.16	0.911039	0	0.412321	0		$|
9686092	0	object/static/item/item_con_plate_casserole.iff	0	1572.58	99	1820.08	1	0	0	0		$|
9686093	0	object/static/item/item_con_plate_s1_full.iff	0	1572.15	99	1820.02	1	0	0	0		$|
9686095	0	object/static/item/item_con_bowl_serving_full.iff	0	1572.8	99	1820.56	-0.62161	0	0.783327	0		$|
9686096	0	object/static/item/item_drall_medicine.iff	0	1570.65	99	1820.14	1	0	0	0		$|
9686097	0	object/static/item/item_drall_medicine.iff	0	1570.37	99	1820.36	0.947651	0	0.319309	0		$|
9686101	0	object/static/item/item_tank_bubble.iff	0	1571.33	99	1820.37	0.992809	0	0.119712	0		$|
9686103	0	object/static/item/item_tool_turbine_generator.iff	0	1568.91	98.9368	1828.56	0.451522	0	0.89226	0		$|
9686104	0	object/static/creature/droids_r5.iff	0	1569.38	99	1820.89	0.982936	0	0.183946	0		$|
9686105	0	object/static/item/item_comp_ion_cannon.iff	0	1571.03	99.1867	1850.41	-0.538176	-0.458658	0.458658	0.538176		$|
9686106	0	object/static/item/item_comp_stabilization_unit.iff	0	1574.41	99	1849.95	0.0607589	0	0.998152	0		$|
9686107	0	object/static/item/item_comp_turret_base.iff	0	1568.91	99	1849.98	1	0	0	0		$|
9686108	0	object/static/item/item_comp_turret_base.iff	0	1556.18	99.0602	1852.42	0.867819	0	0.49688	0		$|
9705443	0	object/building/endor/endor_lake_hut.iff	0	691.777	182.07	1910.86	1	0	0	0		$|
9705450	0	object/static/structure/general/streetlamp_small_style_01.iff	0	691.786	181.295	1910.73	1	0	0	0		$|
9875524	0	object/static/structure/military/military_column_strong_rebel_style_01.iff	0	1459.1	82.0001	1799.78	1	0	0	0		$|
9875549	0	object/static/structure/military/military_column_strong_rebel_style_01.iff	0	1559.35	99	1809.54	1	0	0	0		$|
9875560	0	object/static/structure/general/prp_junk_s8.iff	0	1577.65	99	1820.68	1	0	0	0		$|
9875561	0	object/static/structure/general/prp_junk_s8.iff	0	1570.37	99	1816.9	1	0	0	0		$|
