objid	container	server_template_crc	cell_index	px	py	pz	qw	qx	qy	qz	scripts	objvars
i	i	h	i	f	f	f	f	f	f	f	s	p
1365875	0	object/building/military/military_base_shed_imperial_style_cantina_s01.iff	0	1937	3	1666	1	0	0	0	planet_map.map_loc	planetMap.category|4|cantina|portalLayoutCrc|0|-242217168|healing.canhealshock|0|1|safeLogout|0|1|$|
1365876	1365875	object/cell/cell.iff	1	0	0	0	0	0	0	0		$|
1365877	1365875	object/cell/cell.iff	2	0	0	0	0	0	0	0		$|
1365878	1365875	object/cell/cell.iff	3	0	0	0	0	0	0	0		$|
5097116	1365878	object/tangible/space/content_infrastructure/ground_npc_spawner.iff	3	0	0.1	-5.7	1	0	0	0	space.content_tools.npc_spawner	$|
1365879	1365875	object/cell/cell.iff	4	0	0	0	0	0	0	0		$|
1365880	1365875	object/cell/cell.iff	5	0	0	0	0	0	0	0		$|
1365881	1365875	object/cell/cell.iff	6	0	0	0	0	0	0	0		$|
1365889	0	object/building/military/military_base_shed_imperial_style_bank_s01.iff	0	1883	3	1688	0.707107	0	0.707106	0		portalLayoutCrc|0|-242217168|$|
1365890	1365889	object/cell/cell.iff	1	0	0	0	0	0	0	0		$|
1365891	1365889	object/cell/cell.iff	2	0	0	0	0	0	0	0		$|
1365892	1365889	object/cell/cell.iff	3	0	0	0	0	0	0	0		$|
1365893	1365889	object/cell/cell.iff	4	0	0	0	0	0	0	0		$|
1365894	1365889	object/cell/cell.iff	5	0	0	0	0	0	0	0		$|
1365895	1365889	object/cell/cell.iff	6	0	0	0	0	0	0	0		$|
1365954	0	object/tangible/terminal/terminal_bazaar.iff	0	1891.35	3	1683.16	0.707107	0	0.707106	0		$|
1365955	0	object/tangible/terminal/terminal_bank.iff	0	1890.91	3	1692.7	0.707107	0	0.707106	0		$|
1366043	0	object/static/structure/general/streetlamp_small_red_style_01.iff	0	1890.27	3	1689.22	1	0	0	0		$|
1366044	0	object/static/structure/general/streetlamp_small_red_style_01.iff	0	1947.84	3	1686.77	1	0	0	0		$|
1366045	0	object/static/structure/general/streetlamp_medium_style_01.iff	0	1924.92	3	1660.11	-0.382683	0	0.92388	0		$|
1380122	0	object/building/military/military_base_shed_imperial_style_hospital_01.iff	0	1955	3	1688	0.707107	0	-0.707106	0	planet_map.map_loc	planetMap.category|4|medicalcenter|portalLayoutCrc|0|-242217168|healing.canhealwound|0|1|$|
1380123	1380122	object/cell/cell.iff	1	0	0	0	0	0	0	0		$|
1380124	1380122	object/cell/cell.iff	2	0	0	0	0	0	0	0		$|
1380125	1380122	object/cell/cell.iff	3	0	0	0	0	0	0	0		$|
1380126	1380122	object/cell/cell.iff	4	0	0	0	0	0	0	0		$|
1380127	1380122	object/cell/cell.iff	5	0	0	0	0	0	0	0		$|
1380128	1380122	object/cell/cell.iff	6	0	0	0	0	0	0	0		$|
2955448	0	object/building/military/mun_all_military_tower_impl_guard_s01.iff	0	1964	3	1713	0.92388	0	0.382683	0		portalLayoutCrc|0|-443284577|$|
2955449	2955448	object/cell/cell.iff	1	0	0	0	0	0	0	0		$|
2955471	0	object/building/military/mun_all_military_tower_impl_guard_s01.iff	0	1874	3	1663	-0.382683	0	0.92388	0		portalLayoutCrc|0|-443284577|$|
2955472	2955471	object/cell/cell.iff	1	0	0	0	0	0	0	0		$|
2955473	0	object/building/military/mun_all_military_tower_impl_guard_s01.iff	0	1964	3	1663	0.382683	0	0.92388	0		portalLayoutCrc|0|-443284577|$|
2955474	2955473	object/cell/cell.iff	1	0	0	0	0	0	0	0		$|
2955475	0	object/building/military/mun_all_military_tower_impl_guard_s01.iff	0	1874	3	1713	0.92388	0	-0.382683	0		portalLayoutCrc|0|-443284577|$|
2955476	2955475	object/cell/cell.iff	1	0	0	0	0	0	0	0		$|
2955477	0	object/static/structure/military/military_wall_weak_imperial_16_style_01.iff	0	1965.19	3.44272	1713.89	0.92388	0	0.382683	0		$|
2955478	0	object/static/structure/tatooine/antenna_tatt_style_1.iff	0	1910	2.91422	1658	0.922997	0	-0.384808	0		$|
2955479	0	object/static/structure/general/streetlamp_small_style_01.iff	0	1987.19	7.55368	1695.89	1	0	0	0		$|
2955480	0	object/static/structure/military/military_wall_med_imperial_style_01.iff	0	1891	3.44272	1704	3.20E-08	0	1	0		$|
2955481	0	object/static/structure/military/military_column_weak_imperial_style_01.iff	0	1987.19	3.44272	1695.89	1	0	0	0		$|
2955482	0	object/static/structure/general/streetlamp_small_style_01.iff	0	1987.19	7.55544	1679.89	1	0	0	0		$|
2955483	0	object/static/structure/military/military_column_weak_imperial_style_01.iff	0	1971.19	3.44272	1707.89	1	0	0	0		$|
2955484	0	object/static/structure/military/military_column_weak_imperial_style_01.iff	0	1987.19	3.44272	1679.89	1	0	0	0		$|
2955485	0	object/static/structure/military/military_column_weak_imperial_style_01.iff	0	1979.19	3.44272	1683.89	1	0	0	0		$|
2955486	0	object/static/structure/military/military_column_weak_imperial_style_01.iff	0	1971.19	3.44272	1691.89	1	0	0	0		$|
2955487	0	object/static/structure/military/military_column_weak_imperial_style_01.iff	0	1979.19	3.44272	1691.89	1	0	0	0		$|
2955488	0	object/static/structure/military/military_column_weak_imperial_style_01.iff	0	1959.19	3.44272	1719.89	1	0	0	0		$|
2955489	0	object/static/structure/military/military_column_weak_imperial_style_01.iff	0	1971.19	3.44272	1683.89	1	0	0	0		$|
2955490	0	object/static/structure/military/military_wall_med_imperial_16_style_01.iff	0	1887.19	3.44272	1727.89	0.707107	0	-0.707107	0		$|
2955491	0	object/static/structure/military/military_wall_weak_imperial_16_style_01.iff	0	1971.19	3.44272	1675.89	0.707109	0	-0.707104	0		$|
2955492	0	object/static/structure/military/military_wall_med_imperial_16_style_01.iff	0	1919	3.44272	1752	1	0	0	0		$|
2955493	0	object/static/structure/military/military_wall_med_imperial_16_style_01.iff	0	1903	3.44272	1704	3.20E-08	0	1	0		$|
2955494	0	object/static/structure/military/military_wall_weak_imperial_16_style_01.iff	0	1987.19	3.44272	1687.89	0.707107	0	-0.707107	0		$|
2955495	0	object/static/structure/military/military_wall_weak_imperial_16_style_01.iff	0	1903.19	3.44272	1655.89	1	0	0	0		$|
2955496	0	object/static/structure/military/military_wall_med_imperial_style_01.iff	0	1947	3.44272	1736	1	0	0	0		$|
2955497	0	object/static/structure/military/military_column_weak_imperial_style_01.iff	0	1971.19	3.44272	1667.89	1	0	0	0		$|
2955500	0	object/static/structure/military/military_wall_med_imperial_style_01.iff	0	1947	3.44272	1704	1	0	0	0		$|
2955501	0	object/static/structure/general/streetlamp_medium_style_01.iff	0	1898.9	2.96838	1673.65	1	0	0	0		$|
2955502	0	object/static/structure/military/military_wall_med_imperial_16_style_01.iff	0	1887.19	3.44272	1711.89	0.707107	0	0.707107	0		$|
2955503	0	object/static/structure/military/military_wall_med_imperial_style_01.iff	0	1891	3.44272	1752	1	0	0	0		$|
2955504	0	object/static/structure/military/military_wall_med_imperial_16_style_01.iff	0	1902	3.44272	1752	1	0	0	0		$|
2955505	0	object/static/structure/general/streetlamp_medium_style_01.iff	0	1919.19	2.93345	1697.06	1	0	0	0		$|
2955506	0	object/static/structure/general/streetlamp_medium_style_01.iff	0	1939.12	2.96838	1673.62	1	0	0	0		$|
2955507	0	object/static/structure/general/banner_imperial_style_01.iff	0	1979.19	7.68017	1691.89	0.70711	0	-0.707103	0		$|
2955508	0	object/static/structure/general/banner_imperial_style_01.iff	0	1979.19	7.68018	1683.89	-0.707107	0	0.707107	0		$|
2955510	0	object/static/structure/military/military_wall_weak_imperial_16_style_01.iff	0	1935.19	3.44272	1655.89	1	0	0	0		$|
2955512	0	object/static/structure/military/military_wall_weak_imperial_16_style_01.iff	0	1951.19	3.44272	1655.89	1	0	0	0		$|
2955513	0	object/static/structure/military/military_wall_weak_imperial_16_style_01.iff	0	1965.19	3.44272	1661.89	0.92388	0	-0.382683	0		$|
2955514	0	object/static/structure/military/military_wall_med_imperial_16_style_01.iff	0	1951	3.44272	1728	0.70711	0	-0.707103	0		$|
2955515	0	object/static/structure/military/military_wall_med_imperial_32_style_01.iff	0	1919.19	3.44272	1695.89	1	0	0	0		$|
2955516	0	object/static/structure/military/military_wall_weak_imperial_style_01.iff	0	1975.19	3.44272	1683.89	1	0	0	0		$|
2955517	0	object/static/structure/military/military_wall_weak_imperial_style_01.iff	0	1975.19	3.44272	1691.89	1	0	0	0		$|
2955518	0	object/static/structure/military/military_wall_med_imperial_16_style_01.iff	0	1951	3.44272	1712	0.70711	0	-0.707103	0		$|
2955519	0	object/static/structure/military/military_wall_weak_imperial_16_style_01.iff	0	1971.19	3.44272	1699.89	0.707109	0	-0.707104	0		$|
2955520	0	object/static/structure/military/military_wall_weak_imperial_style_01.iff	0	1883.19	3.44272	1719.89	1	0	0	0		$|
2955521	0	object/static/structure/military/military_wall_weak_imperial_16_style_01.iff	0	1887.19	3.44272	1655.89	1	0	0	0		$|
2955522	0	object/static/structure/military/military_column_weak_imperial_style_01.iff	0	1959.19	3.44272	1655.89	1	0	0	0		$|
2955523	0	object/static/structure/military/military_wall_weak_imperial_16_style_01.iff	0	1873.19	3.44272	1713.89	0.92388	0	-0.382683	0		$|
2955524	0	object/static/structure/military/military_column_med_imperial_style_01.iff	0	1951	3.44272	1704	1	0	0	0		$|
2955525	0	object/static/structure/military/military_wall_weak_imperial_16_style_01.iff	0	1873.19	3.44272	1661.89	0.92388	0	0.382683	0		$|
2955526	0	object/static/structure/military/military_column_med_imperial_style_01.iff	0	1951	3.44272	1720	1	0	0	0		$|
2955527	0	object/static/structure/military/military_wall_weak_imperial_16_style_01.iff	0	1867.19	3.44272	1699.89	0.707109	0	-0.707104	0		$|
2955528	0	object/static/structure/military/military_wall_weak_imperial_16_style_01.iff	0	1867.19	3.44272	1675.89	0.707109	0	-0.707104	0		$|
2955529	0	object/static/structure/corellia/corl_power_arial_prime.iff	0	1949.16	2.49403	1727	0.707107	0	0.707107	0		$|
2955530	0	object/static/structure/corellia/corl_power_arial_thin.iff	0	1949.44	2.62053	1731.09	0.707118	0	-0.707095	0		$|
2955531	0	object/static/structure/military/military_column_weak_imperial_style_01.iff	0	1943.19	3.44272	1655.89	1	0	0	0		$|
2955532	0	object/static/structure/military/military_column_med_imperial_style_01.iff	0	1951	3.44272	1736	1	0	0	0		$|
2955533	0	object/static/structure/military/military_wall_weak_imperial_style_01.iff	0	1863.19	3.44272	1691.89	1	0	0	0		$|
2955534	0	object/static/structure/military/military_wall_weak_imperial_style_01.iff	0	1863.19	3.44272	1683.89	1	0	0	0		$|
2955535	0	object/static/structure/military/military_column_weak_imperial_style_01.iff	0	1943	3.44272	1720	1	0	0	0		$|
2955536	0	object/static/structure/corellia/corl_imprv_wall_4x16_s03.iff	0	1943	3	1712	0.70711	0	-0.707103	0		$|
2955537	0	object/static/structure/corellia/corl_power_bubble_node.iff	0	1947	3	1725	1	0	0	0		$|
2955538	0	object/static/structure/corellia/corl_power_bubble_node.iff	0	1947	3	1729	1	0	0	0		$|
2955539	0	object/static/structure/corellia/corl_power_bubble_node.iff	0	1947	3	1733	1	0	0	0		$|
2955540	0	object/static/structure/military/military_column_med_imperial_style_01.iff	0	1935.19	3.44272	1695.89	1	0	0	0		$|
2955541	0	object/static/structure/military/military_column_med_imperial_style_01.iff	0	1943	3.44272	1704	1	0	0	0		$|
2955542	0	object/static/structure/general/banner_imperial_style_01.iff	0	1859.19	7.68018	1691.89	0.70711	0	0.707103	0		$|
2955543	0	object/static/structure/general/banner_imperial_style_01.iff	0	1859.19	7.68018	1683.89	-0.707107	0	0.707107	0		$|
2955544	0	object/static/structure/corellia/corl_imprv_wall_4x16_s03.iff	0	1943	3	1728	0.70711	0	-0.707103	0		$|
2955545	0	object/static/structure/military/military_column_med_imperial_style_01.iff	0	1943	3.44272	1736	1	0	0	0		$|
2955546	0	object/static/structure/military/military_column_med_imperial_style_01.iff	0	1927.19	3.44272	1703.89	1	0	0	0		$|
2955547	0	object/static/structure/military/military_wall_weak_imperial_16_style_01.iff	0	1851.19	3.44272	1687.89	0.707109	0	-0.707104	0		$|
2955548	0	object/static/structure/general/streetlamp_small_style_01.iff	0	1851.19	7.55369	1679.89	1	0	0	0		$|
2955549	0	object/static/structure/general/streetlamp_small_style_01.iff	0	1851.19	7.56207	1695.89	1	0	0	0		$|
2955550	0	object/static/structure/military/military_column_med_imperial_style_01.iff	0	1927	3.44272	1752	1	0	0	0		$|
2955552	0	object/static/structure/military/military_column_med_imperial_style_01.iff	0	1911	3.44272	1704	3.20E-08	0	1	0		$|
2955553	0	object/static/structure/military/military_column_med_imperial_style_01.iff	0	1911	3.44272	1752	1	0	0	0		$|
2955554	0	object/static/structure/corellia/corl_power_transformer_s02.iff	0	1912	3	1661	0.92388	0	-0.382683	0		$|
2955556	0	object/static/structure/military/military_column_med_imperial_style_01.iff	0	1903.19	3.44272	1695.89	1	0	0	0		$|
2955557	0	object/static/structure/military/military_column_med_imperial_style_01.iff	0	1895	3.44272	1704	3.20E-08	0	1	0		$|
2955558	0	object/static/structure/military/military_column_med_imperial_style_01.iff	0	1895	3.44272	1752	1	0	0	0		$|
2955559	0	object/static/structure/military/military_column_weak_imperial_style_01.iff	0	1895.19	3.44272	1655.89	1	0	0	0		$|
2955560	0	object/static/structure/military/military_column_med_imperial_style_01.iff	0	1887.19	3.44272	1703.89	1	0	0	0		$|
2955561	0	object/static/structure/military/military_column_med_imperial_style_01.iff	0	1887.19	3.44272	1719.89	1	0	0	0		$|
2955562	0	object/static/structure/military/military_column_med_imperial_style_01.iff	0	1887.19	3.44272	1735.89	1	0	0	0		$|
2955563	0	object/static/structure/military/military_column_weak_imperial_style_01.iff	0	1879.19	3.44272	1719.89	1	0	0	0		$|
2955564	0	object/static/structure/military/military_column_weak_imperial_style_01.iff	0	1879.19	3.44272	1655.89	1	0	0	0		$|
2955565	0	object/static/structure/military/military_column_weak_imperial_style_01.iff	0	1867.19	3.44272	1691.89	1	0	0	0		$|
2955566	0	object/static/structure/military/military_column_weak_imperial_style_01.iff	0	1867.19	3.44272	1707.89	1	0	0	0		$|
2955567	0	object/static/structure/military/military_column_weak_imperial_style_01.iff	0	1867.19	3.44272	1683.89	1	0	0	0		$|
2955568	0	object/static/structure/military/military_column_weak_imperial_style_01.iff	0	1867.19	3.44272	1667.89	1	0	0	0		$|
2955569	0	object/static/structure/military/military_column_weak_imperial_style_01.iff	0	1859.19	3.44272	1683.89	1	0	0	0		$|
2955570	0	object/static/structure/military/military_column_weak_imperial_style_01.iff	0	1859.19	3.44272	1691.89	1	0	0	0		$|
2955571	0	object/static/structure/military/military_column_weak_imperial_style_01.iff	0	1851.19	3.44272	1679.89	1	0	0	0		$|
2955572	0	object/static/structure/military/military_column_weak_imperial_style_01.iff	0	1851.19	3.44272	1695.89	1	0	0	0		$|
2955575	0	object/static/installation/mockup_power_generator_fusion_style_1.iff	0	1947.01	3	1713.74	1	0	0	0		$|
2955578	0	object/static/structure/military/military_wall_weak_imperial_style_01.iff	0	1955	3	1720	1	0	0	0		$|
2955579	0	object/static/structure/military/military_wall_med_imperial_16_style_01.iff	0	1935	3	1752	1	0	0	0		$|
2955580	0	object/static/structure/military/military_wall_med_imperial_16_style_01.iff	0	1935	3.44725	1704	1	0	0	0		$|
2955581	0	object/static/structure/military/military_wall_med_imperial_16_style_01.iff	0	1943	3	1744	0.707107	0	0.707106	0		$|
2955582	0	object/static/structure/military/military_wall_med_imperial_16_style_01.iff	0	1887	3	1744	0.707107	0	-0.707106	0		$|
2955583	0	object/static/structure/military/military_column_med_imperial_style_01.iff	0	1887	3	1752	1	0	0	0		$|
2955584	0	object/static/structure/military/military_column_med_imperial_style_01.iff	0	1943	3	1752	1	0	0	0		$|
2955585	0	object/building/military/outpost_starport.iff	0	1915	3	1728	-3.20E-08	0	1	0	structure.municipal.starport	travel.air_time|0|60|travel.cost|0|150|travel.ground_time|0|300|travel.point_name|4|Imperial Outpost|travel.shuttle_available|0|1|travel.version|0|3|portalLayoutCrc|0|-688757533|$|
2955586	2955585	object/cell/cell.iff	1	0	0	0	0	0	0	0		$|
3975461	2955586	object/tangible/terminal/terminal_space.iff	1	-7.44324922561646	.146595031023026	-19.2488059997559	1.00	0.00	0.00	0.00	space.terminal.terminal_space	$|
2955587	0	object/static/structure/general/streetlamp_medium_style_01.iff	0	1919.56	3	1740.79	1	0	0	0		$|
2955596	0	object/static/structure/tatooine/palette_tatooine_style_01.iff	0	1907.06	3	1749.7	-0.703845	0	0.710354	0		$|
2955599	0	object/static/structure/tatooine/debris_tatt_crate_1.iff	0	1906.31	3.12649	1750.25	0.999989	0	-0.00460156	0		$|
2955600	0	object/static/structure/tatooine/debris_tatt_crate_1.iff	0	1907.03	3.12649	1749.08	0.00460196	0	0.999989	0		$|
2955601	0	object/static/structure/tatooine/debris_tatt_crate_1.iff	0	1907.03	3.12649	1750.08	0.0046005	0	0.999989	0		$|
2955602	0	object/static/structure/tatooine/debris_tatt_crate_1.iff	0	1906.32	3.12649	1749.25	0.999989	0	-0.00460156	0		$|
2955603	0	object/static/structure/tatooine/debris_tatt_crate_1.iff	0	1907.75	3.12649	1750.11	0.0045938	0	0.999989	0		$|
2955604	0	object/static/structure/tatooine/debris_tatt_crate_1.iff	0	1907.76	3.12649	1749.11	0.00460215	0	0.99999	0		$|
2955619	0	object/static/structure/tatooine/debris_tatt_crate_1.iff	0	1906.29	3.98031	1750.25	0.999989	0	-0.00460143	0		$|
2955620	0	object/static/structure/tatooine/palette_tatooine_style_01.iff	0	1907.04	3.85382	1749.7	-0.703845	0	0.710354	0		$|
2955621	0	object/static/structure/tatooine/debris_tatt_crate_1.iff	0	1907.01	3.98031	1750.08	0.00460189	0	0.99999	0		$|
2955622	0	object/static/structure/tatooine/debris_tatt_crate_1.iff	0	1906.3	3.98031	1749.24	0.999989	0	-0.00460143	0		$|
2955623	0	object/static/structure/tatooine/debris_tatt_crate_1.iff	0	1907.02	3.98031	1749.08	0.00460215	0	0.99999	0		$|
2955624	0	object/static/structure/tatooine/debris_tatt_crate_1.iff	0	1907.73	3.98031	1750.11	0.0045911	0	0.999989	0		$|
2955625	0	object/static/structure/tatooine/debris_tatt_crate_1.iff	0	1907.74	3.98031	1749.12	0.00460215	0	0.99999	0		$|
2955626	0	object/static/structure/tatooine/debris_tatt_crate_1.iff	0	1906.27	4.83412	1750.24	0.999989	0	-0.00460143	0		$|
2955627	0	object/static/structure/tatooine/palette_tatooine_style_01.iff	0	1907.02	4.70763	1749.7	-0.703845	0	0.710354	0		$|
2955628	0	object/static/structure/tatooine/debris_tatt_crate_1.iff	0	1906.99	4.83412	1750.08	0.00460189	0	0.99999	0		$|
2955629	0	object/static/structure/tatooine/debris_tatt_crate_1.iff	0	1906.28	4.83412	1749.25	0.999989	0	-0.00460143	0		$|
2955630	0	object/static/structure/tatooine/debris_tatt_crate_1.iff	0	1907	4.83412	1749.08	0.00460215	0	0.99999	0		$|
2955631	0	object/static/structure/tatooine/debris_tatt_crate_1.iff	0	1907.71	4.83412	1750.12	0.0045911	0	0.999989	0		$|
2955632	0	object/static/structure/tatooine/debris_tatt_crate_1.iff	0	1907.72	4.83412	1749.11	0.00460215	0	0.99999	0		$|
2955633	0	object/static/structure/tatooine/debris_tatt_crate_1.iff	0	1906.23	5.68794	1750.24	0.999989	0	-0.00460143	0		$|
2955634	0	object/static/structure/tatooine/palette_tatooine_style_01.iff	0	1906.98	5.56145	1749.69	-0.703845	0	0.710354	0		$|
2955635	0	object/static/structure/tatooine/debris_tatt_crate_1.iff	0	1906.94	5.68794	1750.07	0.00460189	0	0.99999	0		$|
2955636	0	object/static/structure/tatooine/debris_tatt_crate_1.iff	0	1906.24	5.68794	1749.23	0.999989	0	-0.00460143	0		$|
2955637	0	object/static/structure/tatooine/debris_tatt_crate_1.iff	0	1906.95	5.68794	1749.07	0.00460215	0	0.99999	0		$|
2955638	0	object/static/structure/tatooine/debris_tatt_crate_1.iff	0	1907.67	5.68794	1750.1	0.00459267	0	0.999989	0		$|
2955639	0	object/static/structure/tatooine/debris_tatt_crate_1.iff	0	1907.68	5.68794	1749.1	0.00460215	0	0.99999	0		$|
2955640	0	object/static/structure/tatooine/debris_tatt_crate_1.iff	0	1902.86	3.12649	1750.18	0.999989	0	-0.004602	0		$|
2955641	0	object/static/structure/tatooine/palette_tatooine_style_01.iff	0	1903.61	3	1749.64	-0.703845	0	0.710354	0		$|
2955642	0	object/static/structure/tatooine/debris_tatt_crate_1.iff	0	1903.58	3.12649	1750.02	0.0046	0	0.999989	0		$|
2955643	0	object/static/structure/tatooine/debris_tatt_crate_1.iff	0	1902.87	3.12649	1749.18	0.999989	0	-0.004602	0		$|
2955644	0	object/static/structure/tatooine/debris_tatt_crate_1.iff	0	1903.58	3.12649	1749.02	0.004602	0	0.999989	0		$|
2955645	0	object/static/structure/tatooine/debris_tatt_crate_1.iff	0	1904.3	3.12649	1750.05	0.004594	0	0.999989	0		$|
2955646	0	object/static/structure/tatooine/debris_tatt_crate_1.iff	0	1904.31	3.12649	1749.05	0.004602	0	0.99999	0		$|
2955647	0	object/static/structure/tatooine/debris_tatt_crate_1.iff	0	1902.84	3.98031	1750.18	0.999989	0	-0.004601	0		$|
2955648	0	object/static/structure/tatooine/palette_tatooine_style_01.iff	0	1903.59	3.85382	1749.63	-0.703845	0	0.710354	0		$|
2955649	0	object/static/structure/tatooine/debris_tatt_crate_1.iff	0	1903.56	3.98031	1750.01	0.004602	0	0.99999	0		$|
2955650	0	object/static/structure/tatooine/debris_tatt_crate_1.iff	0	1902.85	3.98031	1749.18	0.999989	0	-0.004601	0		$|
2955651	0	object/static/structure/tatooine/debris_tatt_crate_1.iff	0	1903.56	3.98031	1749.01	0.004602	0	0.99999	0		$|
2955652	0	object/static/structure/tatooine/debris_tatt_crate_1.iff	0	1904.28	3.98031	1750.05	0.004591	0	0.999989	0		$|
2955653	0	object/static/structure/tatooine/debris_tatt_crate_1.iff	0	1904.29	3.98031	1749.05	0.004602	0	0.99999	0		$|
2955654	0	object/static/structure/tatooine/debris_tatt_crate_1.iff	0	1902.82	4.83413	1750.18	0.999989	0	-0.004601	0		$|
2955655	0	object/static/structure/tatooine/palette_tatooine_style_01.iff	0	1903.57	4.70763	1749.64	-0.703845	0	0.710354	0		$|
2955656	0	object/static/structure/tatooine/debris_tatt_crate_1.iff	0	1903.54	4.83413	1750.02	0.004602	0	0.99999	0		$|
2955657	0	object/static/structure/tatooine/debris_tatt_crate_1.iff	0	1902.83	4.83413	1749.18	0.999989	0	-0.004601	0		$|
2955658	0	object/static/structure/tatooine/debris_tatt_crate_1.iff	0	1903.55	4.83413	1749.02	0.004602	0	0.99999	0		$|
2955659	0	object/static/structure/tatooine/debris_tatt_crate_1.iff	0	1904.26	4.83413	1750.05	0.004591	0	0.999989	0		$|
2955660	0	object/static/structure/tatooine/debris_tatt_crate_1.iff	0	1904.27	4.83413	1749.05	0.004602	0	0.99999	0		$|
2955661	0	object/static/structure/tatooine/debris_tatt_crate_1.iff	0	1902.78	5.68794	1750.17	0.999989	0	-0.004601	0		$|
2955662	0	object/static/structure/tatooine/palette_tatooine_style_01.iff	0	1903.52	5.56145	1749.63	-0.703845	0	0.710354	0		$|
2955663	0	object/static/structure/tatooine/debris_tatt_crate_1.iff	0	1903.49	5.68794	1750	0.004602	0	0.99999	0		$|
2955664	0	object/static/structure/tatooine/debris_tatt_crate_1.iff	0	1902.78	5.68794	1749.17	0.999989	0	-0.004601	0		$|
2955665	0	object/static/structure/tatooine/debris_tatt_crate_1.iff	0	1903.5	5.68794	1749	0.004602	0	0.99999	0		$|
2955666	0	object/static/structure/tatooine/debris_tatt_crate_1.iff	0	1904.21	5.68794	1750.04	0.004593	0	0.999989	0		$|
2955667	0	object/static/structure/tatooine/debris_tatt_crate_1.iff	0	1904.22	5.68794	1749.04	0.004602	0	0.99999	0		$|
2955668	0	object/static/structure/tatooine/debris_tatt_crate_1.iff	0	1908.56	3.12649	1744.26	0.999989	0	-0.004602	0		$|
2955669	0	object/static/structure/tatooine/palette_tatooine_style_01.iff	0	1909.31	3	1743.72	-0.703845	0	0.710354	0		$|
2955670	0	object/static/structure/tatooine/debris_tatt_crate_1.iff	0	1909.27	3.12649	1744.1	0.0046	0	0.999989	0		$|
2955671	0	object/static/structure/tatooine/debris_tatt_crate_1.iff	0	1908.57	3.12649	1743.26	0.999989	0	-0.004602	0		$|
2955672	0	object/static/structure/tatooine/debris_tatt_crate_1.iff	0	1909.28	3.12649	1743.09	0.004602	0	0.999989	0		$|
2955673	0	object/static/structure/tatooine/debris_tatt_crate_1.iff	0	1910	3.12649	1744.13	0.004594	0	0.999989	0		$|
2955674	0	object/static/structure/tatooine/debris_tatt_crate_1.iff	0	1910.01	3.12649	1743.13	0.004602	0	0.99999	0		$|
2955675	0	object/static/structure/tatooine/debris_tatt_crate_1.iff	0	1908.54	3.98031	1744.26	0.999989	0	-0.004601	0		$|
2955676	0	object/static/structure/tatooine/palette_tatooine_style_01.iff	0	1909.29	3.85382	1743.71	-0.703845	0	0.710354	0		$|
2955677	0	object/static/structure/tatooine/debris_tatt_crate_1.iff	0	1909.26	3.98031	1744.09	0.004602	0	0.99999	0		$|
2955678	0	object/static/structure/tatooine/debris_tatt_crate_1.iff	0	1908.55	3.98031	1743.26	0.999989	0	-0.004601	0		$|
2955679	0	object/static/structure/tatooine/debris_tatt_crate_1.iff	0	1909.26	3.98031	1743.09	0.004602	0	0.99999	0		$|
2955680	0	object/static/structure/tatooine/debris_tatt_crate_1.iff	0	1909.98	3.98031	1744.13	0.004591	0	0.999989	0		$|
2955681	0	object/static/structure/tatooine/debris_tatt_crate_1.iff	0	1909.99	3.98031	1743.13	0.004602	0	0.99999	0		$|
2955682	0	object/static/structure/tatooine/debris_tatt_crate_1.iff	0	1908.52	4.83413	1744.26	0.999989	0	-0.004601	0		$|
2955683	0	object/static/structure/tatooine/palette_tatooine_style_01.iff	0	1909.27	4.70763	1743.72	-0.703845	0	0.710354	0		$|
2955684	0	object/static/structure/tatooine/debris_tatt_crate_1.iff	0	1909.24	4.83413	1744.09	0.004602	0	0.99999	0		$|
2955685	0	object/static/structure/tatooine/debris_tatt_crate_1.iff	0	1908.53	4.83413	1743.26	0.999989	0	-0.004601	0		$|
2955686	0	object/static/structure/tatooine/debris_tatt_crate_1.iff	0	1909.24	4.83413	1743.1	0.004602	0	0.99999	0		$|
2955687	0	object/static/structure/tatooine/debris_tatt_crate_1.iff	0	1909.96	4.83413	1744.13	0.004591	0	0.999989	0		$|
2955688	0	object/static/structure/tatooine/debris_tatt_crate_1.iff	0	1909.97	4.83413	1743.12	0.004602	0	0.99999	0		$|
2955689	0	object/static/structure/tatooine/debris_tatt_crate_1.iff	0	1908.47	5.68794	1744.25	0.999989	0	-0.004601	0		$|
2955690	0	object/static/structure/tatooine/palette_tatooine_style_01.iff	0	1909.22	5.56145	1743.7	-0.703845	0	0.710354	0		$|
2955691	0	object/static/structure/tatooine/debris_tatt_crate_1.iff	0	1909.19	5.68794	1744.08	0.004602	0	0.99999	0		$|
2955692	0	object/static/structure/tatooine/debris_tatt_crate_1.iff	0	1908.48	5.68794	1743.25	0.999989	0	-0.004601	0		$|
2955693	0	object/static/structure/tatooine/debris_tatt_crate_1.iff	0	1909.2	5.68794	1743.08	0.004602	0	0.99999	0		$|
2955694	0	object/static/structure/tatooine/debris_tatt_crate_1.iff	0	1909.91	5.68794	1744.11	0.004593	0	0.999989	0		$|
2955695	0	object/static/structure/tatooine/debris_tatt_crate_1.iff	0	1909.92	5.68794	1743.11	0.004602	0	0.99999	0		$|
2955696	0	object/static/structure/tatooine/debris_tatt_crate_1.iff	0	1899.37	3.12649	1750.08	0.999989	0	-0.004602	0		$|
2955697	0	object/static/structure/tatooine/palette_tatooine_style_01.iff	0	1900.12	3	1749.54	-0.703845	0	0.710354	0		$|
2955698	0	object/static/structure/tatooine/debris_tatt_crate_1.iff	0	1900.08	3.12649	1749.92	0.0046	0	0.999989	0		$|
2955699	0	object/static/structure/tatooine/debris_tatt_crate_1.iff	0	1899.37	3.12649	1749.08	0.999989	0	-0.004602	0		$|
2955700	0	object/static/structure/tatooine/debris_tatt_crate_1.iff	0	1900.09	3.12649	1748.92	0.004602	0	0.999989	0		$|
2955701	0	object/static/structure/tatooine/debris_tatt_crate_1.iff	0	1900.81	3.12649	1749.95	0.004594	0	0.999989	0		$|
2955702	0	object/static/structure/tatooine/debris_tatt_crate_1.iff	0	1900.81	3.12649	1748.95	0.004602	0	0.99999	0		$|
2955703	0	object/static/structure/tatooine/debris_tatt_crate_1.iff	0	1899.35	3.98031	1750.08	0.999989	0	-0.004601	0		$|
2955704	0	object/static/structure/tatooine/palette_tatooine_style_01.iff	0	1900.1	3.85382	1749.53	-0.703845	0	0.710354	0		$|
2955705	0	object/static/structure/tatooine/debris_tatt_crate_1.iff	0	1900.07	3.98031	1749.92	0.004602	0	0.99999	0		$|
2955706	0	object/static/structure/tatooine/debris_tatt_crate_1.iff	0	1899.36	3.98031	1749.08	0.999989	0	-0.004601	0		$|
2955707	0	object/static/structure/tatooine/debris_tatt_crate_1.iff	0	1900.07	3.98031	1748.92	0.004602	0	0.99999	0		$|
2955708	0	object/static/structure/tatooine/debris_tatt_crate_1.iff	0	1900.79	3.98031	1749.95	0.004591	0	0.999989	0		$|
2955709	0	object/static/structure/tatooine/debris_tatt_crate_1.iff	0	1900.8	3.98031	1748.95	0.004602	0	0.99999	0		$|
2955710	0	object/static/structure/tatooine/debris_tatt_crate_1.iff	0	1899.33	4.83413	1750.08	0.999989	0	-0.004601	0		$|
2955711	0	object/static/structure/tatooine/palette_tatooine_style_01.iff	0	1900.07	4.70763	1749.54	-0.703845	0	0.710354	0		$|
2955712	0	object/static/structure/tatooine/debris_tatt_crate_1.iff	0	1900.05	4.83413	1749.92	0.004602	0	0.99999	0		$|
2955713	0	object/static/structure/tatooine/debris_tatt_crate_1.iff	0	1899.34	4.83413	1749.08	0.999989	0	-0.004601	0		$|
2955714	0	object/static/structure/tatooine/debris_tatt_crate_1.iff	0	1900.05	4.83413	1748.92	0.004602	0	0.99999	0		$|
2955715	0	object/static/structure/tatooine/debris_tatt_crate_1.iff	0	1900.77	4.83413	1749.95	0.004591	0	0.999989	0		$|
2955716	0	object/static/structure/tatooine/debris_tatt_crate_1.iff	0	1900.78	4.83413	1748.95	0.004602	0	0.99999	0		$|
2955717	0	object/static/structure/tatooine/debris_tatt_crate_1.iff	0	1899.28	5.68794	1750.07	0.999989	0	-0.004601	0		$|
2955718	0	object/static/structure/tatooine/palette_tatooine_style_01.iff	0	1900.03	5.56145	1749.53	-0.703845	0	0.710354	0		$|
2955719	0	object/static/structure/tatooine/debris_tatt_crate_1.iff	0	1900	5.68794	1749.91	0.004602	0	0.99999	0		$|
2955720	0	object/static/structure/tatooine/debris_tatt_crate_1.iff	0	1899.29	5.68794	1749.07	0.999989	0	-0.004601	0		$|
2955721	0	object/static/structure/tatooine/debris_tatt_crate_1.iff	0	1900	5.68794	1748.91	0.004602	0	0.99999	0		$|
2955722	0	object/static/structure/tatooine/debris_tatt_crate_1.iff	0	1900.72	5.68794	1749.94	0.004593	0	0.999989	0		$|
2955723	0	object/static/structure/tatooine/debris_tatt_crate_1.iff	0	1900.73	5.68794	1748.94	0.004602	0	0.99999	0		$|
2955724	0	object/static/structure/tatooine/debris_tatt_crate_1.iff	0	1904.93	3.12649	1744.17	0.999989	0	-0.004602	0		$|
2955725	0	object/static/structure/tatooine/palette_tatooine_style_01.iff	0	1905.68	3	1743.62	-0.703845	0	0.710354	0		$|
2955726	0	object/static/structure/tatooine/debris_tatt_crate_1.iff	0	1905.64	3.12649	1744	0.0046	0	0.999989	0		$|
2955727	0	object/static/structure/tatooine/debris_tatt_crate_1.iff	0	1904.93	3.12649	1743.16	0.999989	0	-0.004602	0		$|
2955728	0	object/static/structure/tatooine/debris_tatt_crate_1.iff	0	1905.65	3.12649	1743	0.004602	0	0.999989	0		$|
2955729	0	object/static/structure/tatooine/debris_tatt_crate_1.iff	0	1906.37	3.12649	1744.03	0.004594	0	0.999989	0		$|
2955730	0	object/static/structure/tatooine/debris_tatt_crate_1.iff	0	1906.37	3.12649	1743.03	0.004602	0	0.99999	0		$|
2955731	0	object/static/structure/tatooine/debris_tatt_crate_1.iff	0	1904.91	3.98031	1744.16	0.999989	0	-0.004601	0		$|
2955732	0	object/static/structure/tatooine/palette_tatooine_style_01.iff	0	1905.66	3.85382	1743.62	-0.703845	0	0.710354	0		$|
2955733	0	object/static/structure/tatooine/debris_tatt_crate_1.iff	0	1905.63	3.98031	1744	0.004602	0	0.99999	0		$|
2955734	0	object/static/structure/tatooine/debris_tatt_crate_1.iff	0	1904.92	3.98031	1743.16	0.999989	0	-0.004601	0		$|
2955735	0	object/static/structure/tatooine/debris_tatt_crate_1.iff	0	1905.63	3.98031	1743	0.004602	0	0.99999	0		$|
2955736	0	object/static/structure/tatooine/debris_tatt_crate_1.iff	0	1906.35	3.98031	1744.03	0.004591	0	0.999989	0		$|
2955737	0	object/static/structure/tatooine/debris_tatt_crate_1.iff	0	1906.36	3.98031	1743.03	0.004602	0	0.99999	0		$|
2955738	0	object/static/structure/tatooine/debris_tatt_crate_1.iff	0	1904.89	4.83413	1744.16	0.999989	0	-0.004601	0		$|
2955739	0	object/static/structure/tatooine/palette_tatooine_style_01.iff	0	1905.63	4.70763	1743.62	-0.703845	0	0.710354	0		$|
2955740	0	object/static/structure/tatooine/debris_tatt_crate_1.iff	0	1905.61	4.83413	1744	0.004602	0	0.99999	0		$|
2955741	0	object/static/structure/tatooine/debris_tatt_crate_1.iff	0	1904.9	4.83413	1743.16	0.999989	0	-0.004601	0		$|
2955742	0	object/static/structure/tatooine/debris_tatt_crate_1.iff	0	1905.61	4.83413	1743	0.004602	0	0.99999	0		$|
2955743	0	object/static/structure/tatooine/debris_tatt_crate_1.iff	0	1906.33	4.83413	1744.03	0.004591	0	0.999989	0		$|
2955744	0	object/static/structure/tatooine/debris_tatt_crate_1.iff	0	1906.34	4.83413	1743.03	0.004602	0	0.99999	0		$|
2955745	0	object/static/structure/tatooine/debris_tatt_crate_1.iff	0	1904.84	5.68794	1744.15	0.999989	0	-0.004601	0		$|
2955746	0	object/static/structure/tatooine/palette_tatooine_style_01.iff	0	1905.59	5.56145	1743.61	-0.703845	0	0.710354	0		$|
2955747	0	object/static/structure/tatooine/debris_tatt_crate_1.iff	0	1905.56	5.68794	1743.99	0.004602	0	0.99999	0		$|
2955748	0	object/static/structure/tatooine/debris_tatt_crate_1.iff	0	1904.85	5.68794	1743.15	0.999989	0	-0.004601	0		$|
2955749	0	object/static/structure/tatooine/debris_tatt_crate_1.iff	0	1905.56	5.68794	1742.99	0.004602	0	0.99999	0		$|
2955750	0	object/static/structure/tatooine/debris_tatt_crate_1.iff	0	1906.28	5.68794	1744.02	0.004593	0	0.999989	0		$|
2955751	0	object/static/structure/tatooine/debris_tatt_crate_1.iff	0	1906.29	5.68794	1743.02	0.004602	0	0.99999	0		$|
2955752	0	object/static/structure/general/tankfarm_s01.iff	0	1894.35	3	1708.1	1	0	0	0		$|
2955753	0	object/static/structure/tatooine/debris_tatt_pipe_dual_unconnected.iff	0	1898.44	3	1706.13	1	0	0	0		$|
3095573	0	object/static/creature/droids_r5.iff	0	1881.13	3	1712.53	0.934124	0	0.356949	0		$|
3226131	0	object/static/installation/mockup_factory_organic_style_1.iff	0	1919	3	1691	0.707107	0	0.707106	0		$|
3226142	0	object/static/structure/tatooine/palette_tatooine_style_01.iff	0	1924.35	3	1692.79	1	0	0	0		$|
3226143	0	object/static/item/item_container_energy_radioactive.iff	0	1924.93	3.12649	1693.39	1	0	0	0		$|
3226144	0	object/static/item/item_container_energy_radioactive.iff	0	1924.93	3.12649	1692.16	1	0	0	0		$|
3226145	0	object/static/item/item_container_energy_radioactive.iff	0	1923.74	3.12649	1693.41	1	0	0	0		$|
3226146	0	object/static/item/item_container_energy_radioactive.iff	0	1923.76	3.12649	1692.17	1	0	0	0		$|
3226147	0	object/static/structure/tatooine/palette_tatooine_style_01.iff	0	1924.35	3.60083	1692.78	1	0	0	0		$|
3226148	0	object/static/item/item_container_energy_radioactive.iff	0	1924.93	3.72733	1693.38	1	0	0	0		$|
3226149	0	object/static/item/item_container_energy_radioactive.iff	0	1924.93	3.72733	1692.15	1	0	0	0		$|
3226150	0	object/static/item/item_container_energy_radioactive.iff	0	1923.74	3.72733	1693.4	1	0	0	0		$|
3226151	0	object/static/item/item_container_energy_radioactive.iff	0	1923.76	3.72733	1692.16	1	0	0	0		$|
3226154	0	object/building/military/military_outpost_guard_house_imperial.iff	0	1919	3	1656	-0.382683	0	0.92388	0		portalLayoutCrc|0|-285862605|$|
3226155	3226154	object/cell/cell.iff	1	0	0	0	0	0	0	0		$|
3226156	3226154	object/cell/cell.iff	2	0	0	0	0	0	0	0		$|
4775990	0	object/static/structure/general/streetlamp_small_red_style_01.iff	0	1895.27	6.8806	1731.29	-0.00920352	0.999958	0	0		$|
4775991	0	object/static/structure/general/streetlamp_small_red_style_01.iff	0	1934.66	6.88255	1730.93	-0.00420341	0.999941	0.00998935	-0.000457796		$|
4775992	0	object/static/item/item_briefcase.iff	0	1930.72	3	1702.01	0.703845	0	0.710353	0		$|
4775993	0	object/static/item/item_container_organic_food.iff	0	1931.64	3	1702.99	3.20E-08	0	1	0		$|
4775994	0	object/static/item/item_container_organic_food.iff	0	1931.97	3	1702.98	3.20E-08	0	1	0		$|
4775995	0	object/static/item/item_container_organic_food.iff	0	1932.31	3	1703	3.20E-08	0	1	0		$|
4775996	0	object/static/item/item_container_organic_food.iff	0	1931.67	3	1702.62	0	0	1	0		$|
4775997	0	object/static/item/item_container_organic_food.iff	0	1932	3	1702.61	0	0	1	0		$|
4775998	0	object/static/item/item_container_organic_food.iff	0	1932.34	3	1702.63	0	0	1	0		$|
4775999	0	object/static/item/item_container_inorganic_gas.iff	0	1931.72	3	1702.02	1	0	0	0		$|
4776000	0	object/static/item/item_container_inorganic_gas.iff	0	1932.33	3	1702.02	1	0	0	0		$|
4776001	0	object/static/item/item_container_organic_hide.iff	0	1941.37	3	1740.47	0.717911	0	-0.696135	0		$|
4776002	0	object/static/item/item_container_organic_hide.iff	0	1941.4	3.4111	1740.49	0.717911	0	-0.696135	0		$|
4776003	0	object/static/item/item_container_organic_structure.iff	0	1941.56	3	1736.17	1	0	0	0		$|
4776004	0	object/static/item/item_container_organic_structure.iff	0	1940.94	3	1741.2	1	0	0	0		$|
4776005	0	object/static/item/item_container_organic_structure.iff	0	1941.63	3	1736.92	1	0	0	0		$|
4776006	0	object/static/item/item_container_organic_structure.iff	0	1940.57	3	1740.46	1	0	0	0		$|
4776007	0	object/tangible/furniture/all/frn_all_toolchest_med_s01.iff	0	1885.79	3.038	1711.68	0.724836	0	-0.688922	0		$|
4776010	0	object/static/item/item_tool_computer_toolkit.iff	0	1885.64	4.04355	1711.84	0.855127	0	-0.518418	0		$|
4776011	0	object/static/item/item_tool_demagnetizer.iff	0	1884.8	3	1713.5	1	0	0	0		$|
4776012	0	object/static/item/item_tool_instrument_calibrator.iff	0	1885.25	3	1713.2	-0.480124	0	0.877201	0		$|
4885423	0	object/building/military/small_imperial_cloning_facility_s02.iff	0	1901	3	1666	1	0	0	0	structure.municipal.cloning_base	portalLayoutCrc|0|-242217168|$|
4885424	4885423	object/cell/cell.iff	1	0	0	0	0	0	0	0		$|
4885425	4885423	object/cell/cell.iff	2	0	0	0	0	0	0	0		$|
4885426	4885423	object/cell/cell.iff	3	0	0	0	0	0	0	0		$|
4885427	4885423	object/cell/cell.iff	4	0	0	0	0	0	0	0		$|
4885428	4885423	object/cell/cell.iff	5	0	0	0	0	0	0	0		$|
4885429	4885423	object/cell/cell.iff	6	0	0	0	0	0	0	0		$|
4885431	0	object/static/structure/general/data_terminal_wall_s2.iff	0	1920.17	3	1687.89	3.20E-08	0	1	0		$|
4885433	0	object/static/item/item_diagnostic_screen.iff	0	1920.66	4.47933	1688.27	-0.519099	0.854714	0	0		$|
4885434	0	object/static/structure/tatooine/debris_tatt_crate_metal_1.iff	0	1945.95	3	1671.71	1	0	0	0		$|
4885435	0	object/static/structure/tatooine/debris_tatt_crate_metal_1.iff	0	1945.93	3	1672.2	1	0	0	0		$|
5055356	0	object/tangible/furniture/all/frn_all_chair_meatal_wheeled_s1.iff	0	1925.83	9.99119	1656.11	0.394751	0	0.918788	0		$|
5055357	0	object/tangible/furniture/all/frn_all_chair_meatal_wheeled_s1.iff	0	1923.1	9.98674	1653.19	0.390152	0	0.920751	0		$|
5055358	0	object/tangible/furniture/all/frn_all_chair_meatal_wheeled_s1.iff	0	1918.86	9.97821	1650.35	-0.0107962	0	0.999942	0		$|
5055359	0	object/tangible/furniture/all/frn_all_chair_meatal_wheeled_s1.iff	0	1914.97	9.99034	1653.33	-0.385543	0	0.92269	0		$|
5055360	0	object/tangible/furniture/all/frn_all_chair_meatal_wheeled_s1.iff	0	1912.32	9.97744	1656	-0.376297	0	0.926499	0		$|
5055361	0	object/tangible/furniture/all/frn_all_data_terminal_wall_s1.iff	0	1926.23	9.46751	1655.82	0.915203	-0.134185	-0.376199	-0.0535952		$|
5055362	0	object/tangible/furniture/all/frn_all_data_terminal_wall_s1.iff	0	1912.08	9.64229	1655.69	0.908883	-0.218898	0.344718	0.0847604		$|
5055363	0	object/tangible/furniture/all/frn_all_data_terminal_wall_s2.iff	0	1919.57	9.45768	1649.8	0.976976	-0.213347	0	0		$|
5055365	0	object/tangible/furniture/all/frn_all_data_terminal_free_s1.iff	0	1917.56	9.91358	1648.79	0.978031	0	0.20846	0		$|
5055367	0	object/tangible/furniture/all/frn_all_data_terminal_free_s2.iff	0	1924.84	9.97364	1659.31	-0.385543	0	0.92269	0		$|
5055369	0	object/tangible/furniture/imperial/table_s1.iff	0	1917.66	9.98503	1657.13	-0.380925	0	0.924606	0		$|
5055371	0	object/tangible/terminal/terminal_mission_imperial.iff	0	1922.5	9.99528	1661.47	-0.385543	0	0.92269	0		$|
5055373	0	object/static/item/item_diagnostic_screen.iff	0	1917.72	10.7501	1656.53	-0.540302	0	0.841471	0		$|
5055374	0	object/static/item/item_diagnostic_screen.iff	0	1917.09	10.7501	1657.22	-0.0856912	0	0.996322	0		$|
5055380	0	object/static/structure/general/streetlamp_small_style_01.iff	0	1919.04	9.89004	1655.65	0.924909	0	-0.380188	0		$|
5055393	0	object/static/structure/general/tankfarm_s01.iff	0	1904.91	3	1708	1	0	0	0		$|
5055396	0	object/tangible/terminal/terminal_mission_imperial.iff	0	1947.46	3	1685.84	-0.702013	0	0.712164	0		$|
5055400	0	object/tangible/terminal/terminal_mission.iff	0	1935.74	3	1721.53	-0.343646	0	0.939099	0		$|
5055402	0	object/static/structure/tatooine/palette_tatooine_style_01.iff	0	1895.75	3	1724.21	0.934124	0	-0.356949	0		$|
5055404	0	object/static/structure/tatooine/debris_tatt_drum_storage_1.iff	0	1895.83	3.12649	1725.15	0.934124	0	-0.356949	0		$|
5055405	0	object/static/structure/tatooine/debris_tatt_drum_storage_1.iff	0	1896.7	3.12649	1724.2	0.934124	0	-0.356949	0		$|
5055406	0	object/static/structure/tatooine/debris_tatt_drum_storage_1.iff	0	1895.72	3.12649	1723.34	0.934124	0	-0.356949	0		$|
5055407	0	object/static/structure/tatooine/debris_tatt_drum_storage_1.iff	0	1894.86	3.12649	1724.25	0.934124	0	-0.356949	0		$|
5055413	0	object/static/structure/tatooine/palette_tatooine_style_01.iff	0	1895.73	4.04356	1724.19	0.934124	0	-0.356949	0		$|
5055414	0	object/static/structure/tatooine/debris_tatt_drum_storage_1.iff	0	1895.82	4.17005	1725.13	0.934124	0	-0.356949	0		$|
5055415	0	object/static/structure/tatooine/debris_tatt_drum_storage_1.iff	0	1896.69	4.17005	1724.18	0.934124	0	-0.356949	0		$|
5055416	0	object/static/structure/tatooine/debris_tatt_drum_storage_1.iff	0	1895.71	4.17005	1723.32	0.934124	0	-0.356949	0		$|
5055417	0	object/static/structure/tatooine/debris_tatt_drum_storage_1.iff	0	1894.85	4.17005	1724.24	0.934124	0	-0.356949	0		$|
5055418	0	object/static/structure/corellia/corl_power_box_node.iff	0	1883.82	3	1716.79	0.707107	0	-0.707107	0		$|
5055419	0	object/static/structure/corellia/corl_power_box_node.iff	0	1954.29	3	1716.92	0.707107	0	-0.707106	0		$|
5055534	0	object/static/structure/tatooine/debris_tatt_crate_metal_1.iff	0	1945.37	3	1668.12	0.707388	0	-0.706825	0		$|
5055535	0	object/static/structure/tatooine/debris_tatt_crate_metal_1.iff	0	1945.61	3.31623	1668.11	0.710913	0	0.70328	0		$|
5055536	0	object/static/structure/tatooine/debris_tatt_crate_metal_1.iff	0	1945.85	3	1668.13	-0.703845	0	0.710353	0		$|
7845943	0	object/tangible/furniture/all/frn_all_desk_radar_topology_screen.iff	0	1921.86	9.93596	1655.79	0.382683	0	0.92388	0		$|
9165389	0	object/static/structure/general/banner_imperial_style_01.iff	0	1923.19	3	1697.22	0.999893	0	-0.0146088	0		$|
9165390	0	object/static/structure/general/banner_imperial_style_01.iff	0	1915.2	3	1697.25	1	0	0	0		$|
228009168	0	object/tangible/planet_map_location/city.iff	0	1920	8	1696	1	0	0	0		$|
1296918	0	object/tangible/space/content_infrastructure/ground_npc_spawner.iff	0	1920.2	3	1711	1	0	0	0	space.content_tools.npc_spawner	$|
1296919	0	object/tangible/space/content_infrastructure/ground_npc_spawner.iff	0	1922	3	1711	1	0	0	0	space.content_tools.npc_spawner	$|
